[Tue Oct 16 06:25:03.781623 2018] [ssl:warn] [pid 1102] AH01909: 192.168.56.150:443:0 server certificate does NOT include an ID which matches the server name
[Tue Oct 16 06:25:03.781725 2018] [mpm_prefork:notice] [pid 1102] AH00163: Apache/2.4.29 (Ubuntu) OpenSSL/1.1.0g configured -- resuming normal operations
[Tue Oct 16 06:25:03.781730 2018] [core:notice] [pid 1102] AH00094: Command line: '/usr/sbin/apache2'
[Tue Oct 16 06:31:37.408627 2018] [php7:notice] [pid 2260] [client 192.168.56.1:50053] PHP Notice:  Undefined index: search in /var/www/html/view/films.php on line 10, referer: https://ccsep/view/films.php?
[Tue Oct 16 06:31:54.090939 2018] [php7:notice] [pid 2262] [client 192.168.56.1:50054] PHP Notice:  Undefined index: search in /var/www/html/view/films.php on line 10, referer: https://ccsep/view/films.php?
[Tue Oct 16 06:32:02.862991 2018] [php7:notice] [pid 2259] [client 192.168.56.1:50055] PHP Notice:  Undefined index: search in /var/www/html/view/films.php on line 10, referer: https://ccsep/view/films.php?
[Tue Oct 16 06:33:26.991039 2018] [php7:notice] [pid 2261] [client 192.168.56.1:50056] PHP Notice:  Undefined index: search in /var/www/html/view/films.php on line 10, referer: https://ccsep/view/films.php?
[Tue Oct 16 06:34:02.748825 2018] [php7:notice] [pid 2336] [client 192.168.56.1:50058] PHP Notice:  Undefined index: search in /var/www/html/view/films.php on line 10, referer: https://ccsep/view/films.php?
[Tue Oct 16 06:34:25.810523 2018] [php7:notice] [pid 2258] [client 192.168.56.1:50061] PHP Notice:  Undefined index: search in /var/www/html/view/films.php on line 11, referer: https://ccsep/view/films.php?
[Tue Oct 16 06:34:43.510478 2018] [php7:notice] [pid 2260] [client 192.168.56.1:50063] PHP Notice:  Undefined index: search in /var/www/html/view/films.php on line 11, referer: https://ccsep/view/films.php?
[Tue Oct 16 06:35:20.990870 2018] [php7:notice] [pid 2262] [client 192.168.56.1:50065] PHP Notice:  Undefined index: search in /var/www/html/view/films.php on line 11, referer: https://ccsep/view/films.php?
[Tue Oct 16 06:36:39.445552 2018] [php7:notice] [pid 2259] [client 192.168.56.1:50070] PHP Notice:  Undefined index: search in /var/www/html/view/films.php on line 11, referer: https://ccsep/view/films.php?
[Tue Oct 16 06:38:45.151075 2018] [php7:error] [pid 2260] [client 192.168.56.1:50076] PHP Fatal error:  Uncaught Error: Class 'Film' not found in /var/www/html/controller/DBController.php:211\nStack trace:\n#0 /var/www/html/view/films.php(11): DBController->searchFilms('zootopia')\n#1 {main}\n  thrown in /var/www/html/controller/DBController.php on line 211, referer: https://ccsep/view/films.php?
[Tue Oct 16 06:39:01.686974 2018] [php7:error] [pid 2262] [client 192.168.56.1:50078] PHP Fatal error:  Uncaught Error: Class 'Film' not found in /var/www/html/controller/DBController.php:211\nStack trace:\n#0 /var/www/html/view/films.php(10): DBController->searchFilms('zootopia')\n#1 {main}\n  thrown in /var/www/html/controller/DBController.php on line 211, referer: https://ccsep/view/films.php?
[Tue Oct 16 06:40:13.833409 2018] [php7:notice] [pid 2260] [client 192.168.56.1:50088] PHP Notice:  Undefined index: uname in /var/www/html/index.php on line 25
[Tue Oct 16 06:40:13.833427 2018] [php7:notice] [pid 2260] [client 192.168.56.1:50088] PHP Notice:  Undefined index: logout in /var/www/html/index.php on line 29
[Tue Oct 16 06:40:13.833431 2018] [php7:notice] [pid 2260] [client 192.168.56.1:50088] PHP Notice:  Undefined index: newbie in /var/www/html/index.php on line 33
[Tue Oct 16 06:40:13.931176 2018] [php7:notice] [pid 2260] [client 192.168.56.1:50088] PHP Notice:  Undefined index: uname in /var/www/html/index.php on line 25
[Tue Oct 16 06:40:13.931195 2018] [php7:notice] [pid 2260] [client 192.168.56.1:50088] PHP Notice:  Undefined index: logout in /var/www/html/index.php on line 29
[Tue Oct 16 06:40:13.931199 2018] [php7:notice] [pid 2260] [client 192.168.56.1:50088] PHP Notice:  Undefined index: newbie in /var/www/html/index.php on line 33
[Tue Oct 16 06:41:57.790792 2018] [php7:notice] [pid 2261] [client 192.168.56.1:50127] PHP Notice:  Undefined variable: query in /var/www/html/view/films.php on line 12, referer: https://ccsep/view/films.php?
[Tue Oct 16 06:42:07.493413 2018] [php7:error] [pid 2476] [client 192.168.56.1:50128] PHP Fatal error:  Uncaught Error: Call to a member function fetch_assoc() on boolean in /var/www/html/controller/DBController.php:205\nStack trace:\n#0 /var/www/html/view/films.php(10): DBController->searchFilms('diuhiuhf\\\\')\n#1 {main}\n  thrown in /var/www/html/controller/DBController.php on line 205, referer: https://ccsep/view/films.php?
[Tue Oct 16 06:42:11.646532 2018] [php7:notice] [pid 2258] [client 192.168.56.1:50129] PHP Notice:  Undefined variable: query in /var/www/html/view/films.php on line 12, referer: https://ccsep/view/films.php?
[Tue Oct 16 06:42:14.856683 2018] [php7:error] [pid 2258] [client 192.168.56.1:50129] PHP Fatal error:  Uncaught Error: Call to a member function fetch_assoc() on boolean in /var/www/html/controller/DBController.php:205\nStack trace:\n#0 /var/www/html/view/films.php(10): DBController->searchFilms('diuhiuhf\\\\')\n#1 {main}\n  thrown in /var/www/html/controller/DBController.php on line 205, referer: https://ccsep/view/films.php?
[Tue Oct 16 06:42:24.464724 2018] [php7:error] [pid 2336] [client 192.168.56.1:50130] PHP Fatal error:  Uncaught Error: Call to a member function fetch_assoc() on boolean in /var/www/html/controller/DBController.php:205\nStack trace:\n#0 /var/www/html/view/films.php(10): DBController->searchFilms('diuhiuhf\\\\')\n#1 {main}\n  thrown in /var/www/html/controller/DBController.php on line 205, referer: https://ccsep/view/films.php?
[Tue Oct 16 06:42:42.199907 2018] [php7:notice] [pid 2260] [client 192.168.56.1:50134] PHP Notice:  Undefined index: uname in /var/www/html/index.php on line 25
[Tue Oct 16 06:42:42.199941 2018] [php7:notice] [pid 2260] [client 192.168.56.1:50134] PHP Notice:  Undefined index: logout in /var/www/html/index.php on line 29
[Tue Oct 16 06:42:42.199945 2018] [php7:notice] [pid 2260] [client 192.168.56.1:50134] PHP Notice:  Undefined index: newbie in /var/www/html/index.php on line 33
[Tue Oct 16 06:43:07.033355 2018] [php7:warn] [pid 2261] [client 192.168.56.1:50137] PHP Warning:  session_destroy(): Trying to destroy uninitialized session in /var/www/html/controller/logout.php on line 2, referer: https://ccsep/view/review.php?film=20
[Tue Oct 16 06:43:07.042507 2018] [php7:notice] [pid 2261] [client 192.168.56.1:50137] PHP Notice:  Undefined index: uname in /var/www/html/index.php on line 25, referer: https://ccsep/view/review.php?film=20
[Tue Oct 16 06:43:53.587027 2018] [php7:warn] [pid 2262] [client 192.168.56.1:50142] PHP Warning:  session_destroy(): Trying to destroy uninitialized session in /var/www/html/controller/logout.php on line 2, referer: https://ccsep/view/films.php
[Tue Oct 16 06:43:53.592377 2018] [php7:notice] [pid 2262] [client 192.168.56.1:50142] PHP Notice:  Undefined index: uname in /var/www/html/index.php on line 25, referer: https://ccsep/view/films.php
[Tue Oct 16 06:44:20.545944 2018] [php7:notice] [pid 2261] [client 192.168.56.1:50147] PHP Notice:  Undefined index: uname in /var/www/html/index.php on line 25, referer: https://ccsep/view/sign_up.php
[Tue Oct 16 06:44:20.545967 2018] [php7:notice] [pid 2261] [client 192.168.56.1:50147] PHP Notice:  Undefined index: logout in /var/www/html/index.php on line 29, referer: https://ccsep/view/sign_up.php
[Tue Oct 16 06:46:07.687167 2018] [php7:warn] [pid 2261] [client 192.168.56.1:50157] PHP Warning:  session_destroy(): Trying to destroy uninitialized session in /var/www/html/controller/logout.php on line 2, referer: https://ccsep/view/review.php?film=22
[Tue Oct 16 06:46:07.695244 2018] [php7:notice] [pid 2261] [client 192.168.56.1:50157] PHP Notice:  Undefined index: uname in /var/www/html/index.php on line 25, referer: https://ccsep/view/review.php?film=22
[Tue Oct 16 06:46:54.736012 2018] [php7:warn] [pid 2336] [client 192.168.56.1:50161] PHP Warning:  session_destroy(): Trying to destroy uninitialized session in /var/www/html/controller/logout.php on line 2, referer: https://ccsep/view/review.php?film=18
[Tue Oct 16 06:46:54.740949 2018] [php7:notice] [pid 2336] [client 192.168.56.1:50161] PHP Notice:  Undefined index: uname in /var/www/html/index.php on line 25, referer: https://ccsep/view/review.php?film=18
[Tue Oct 16 08:47:57.387866 2018] [php7:notice] [pid 2260] [client 192.168.56.1:50299] PHP Notice:  Undefined index: uname in /var/www/html/index.php on line 25
[Tue Oct 16 08:47:57.387900 2018] [php7:notice] [pid 2260] [client 192.168.56.1:50299] PHP Notice:  Undefined index: logout in /var/www/html/index.php on line 29
[Tue Oct 16 08:47:57.387909 2018] [php7:notice] [pid 2260] [client 192.168.56.1:50299] PHP Notice:  Undefined index: newbie in /var/www/html/index.php on line 33
[Tue Oct 16 08:47:57.467241 2018] [php7:notice] [pid 2260] [client 192.168.56.1:50299] PHP Notice:  Undefined index: uname in /var/www/html/index.php on line 25
[Tue Oct 16 08:47:57.467259 2018] [php7:notice] [pid 2260] [client 192.168.56.1:50299] PHP Notice:  Undefined index: logout in /var/www/html/index.php on line 29
[Tue Oct 16 08:47:57.467263 2018] [php7:notice] [pid 2260] [client 192.168.56.1:50299] PHP Notice:  Undefined index: newbie in /var/www/html/index.php on line 33
[Tue Oct 16 09:02:28.886624 2018] [php7:notice] [pid 2259] [client 192.168.56.1:50346] PHP Notice:  Undefined index: uname in /var/www/html/index.php on line 25
[Tue Oct 16 09:02:28.886661 2018] [php7:notice] [pid 2259] [client 192.168.56.1:50346] PHP Notice:  Undefined index: logout in /var/www/html/index.php on line 29
[Tue Oct 16 09:02:28.886666 2018] [php7:notice] [pid 2259] [client 192.168.56.1:50346] PHP Notice:  Undefined index: newbie in /var/www/html/index.php on line 33
[Tue Oct 16 09:04:55.860532 2018] [php7:error] [pid 2259] [client 192.168.56.1:50365] PHP Fatal error:  Cannot declare class Film, because the name is already in use in /var/www/html/model/Film.php on line 2, referer: https://ccsep/view/review.php?film=19
[Tue Oct 16 09:22:51.267779 2018] [mpm_prefork:notice] [pid 1102] AH00169: caught SIGTERM, shutting down
[Wed Oct 17 08:55:38.650355 2018] [ssl:warn] [pid 1048] AH01909: 192.168.56.150:443:0 server certificate does NOT include an ID which matches the server name
[Wed Oct 17 08:55:38.733087 2018] [ssl:warn] [pid 1093] AH01909: 192.168.56.150:443:0 server certificate does NOT include an ID which matches the server name
[Wed Oct 17 08:55:38.736363 2018] [mpm_prefork:notice] [pid 1093] AH00163: Apache/2.4.29 (Ubuntu) OpenSSL/1.1.0g configured -- resuming normal operations
[Wed Oct 17 08:55:38.736402 2018] [core:notice] [pid 1093] AH00094: Command line: '/usr/sbin/apache2'
[Wed Oct 17 09:21:44.278027 2018] [php7:notice] [pid 1109] [client 192.168.56.1:50638] PHP Notice:  Undefined index: uname in /var/www/html/index.php on line 25
[Wed Oct 17 09:21:44.278249 2018] [php7:notice] [pid 1109] [client 192.168.56.1:50638] PHP Notice:  Undefined index: logout in /var/www/html/index.php on line 29
[Wed Oct 17 09:21:44.278262 2018] [php7:notice] [pid 1109] [client 192.168.56.1:50638] PHP Notice:  Undefined index: newbie in /var/www/html/index.php on line 33
[Wed Oct 17 09:22:05.043899 2018] [php7:notice] [pid 1611] [client 192.168.56.1:50646] PHP Notice:  session_start(): A session had already been started - ignoring in /var/www/html/view/admin_panel.php on line 29, referer: https://ccsep/view/account.php
[Wed Oct 17 09:22:05.043938 2018] [php7:notice] [pid 1611] [client 192.168.56.1:50646] PHP Notice:  Undefined index: filmifyed in /var/www/html/view/admin_panel.php on line 43, referer: https://ccsep/view/account.php
[Wed Oct 17 09:30:32.938274 2018] [php7:notice] [pid 1613] [client 192.168.56.1:50671] PHP Notice:  session_start(): A session had already been started - ignoring in /var/www/html/view/admin_panel.php on line 29, referer: https://ccsep/view/account.php
[Wed Oct 17 09:30:32.938318 2018] [php7:notice] [pid 1613] [client 192.168.56.1:50671] PHP Notice:  Undefined index: filmifyed in /var/www/html/view/admin_panel.php on line 43, referer: https://ccsep/view/account.php
[Wed Oct 17 09:45:54.195133 2018] [php7:error] [pid 1108] [client 192.168.56.1:51036] PHP Fatal error:  Uncaught Error: Cannot access private property Database::$connection in /var/www/html/controller/DBController.php:141\nStack trace:\n#0 /var/www/html/controller/submit_review.php(12): DBController->addReview('22', '19', '" ; ==-')\n#1 {main}\n  thrown in /var/www/html/controller/DBController.php on line 141, referer: https://ccsep/view/review.php?film=19
[Wed Oct 17 09:46:21.517594 2018] [php7:error] [pid 1105] [client 192.168.56.1:51042] PHP Fatal error:  Uncaught Error: Cannot access private property Database::$connection in /var/www/html/controller/DBController.php:142\nStack trace:\n#0 /var/www/html/controller/submit_review.php(12): DBController->addReview('22', '19', '" ; ==-')\n#1 {main}\n  thrown in /var/www/html/controller/DBController.php on line 142, referer: https://ccsep/view/review.php?film=19
[Wed Oct 17 09:48:08.076496 2018] [php7:error] [pid 1612] [client 192.168.56.1:51049] PHP Fatal error:  Uncaught Error: Cannot access private property Database::$connection in /var/www/html/controller/DBController.php:141\nStack trace:\n#0 /var/www/html/controller/submit_review.php(12): DBController->addReview('22', '19', '" ; ==-')\n#1 {main}\n  thrown in /var/www/html/controller/DBController.php on line 141, referer: https://ccsep/view/review.php?film=19
[Wed Oct 17 09:58:38.261386 2018] [php7:warn] [pid 1108] [client 192.168.56.1:51087] PHP Warning:  session_destroy(): Trying to destroy uninitialized session in /var/www/html/controller/logout.php on line 2, referer: https://ccsep/view/films.php
[Wed Oct 17 09:58:38.266197 2018] [php7:notice] [pid 1108] [client 192.168.56.1:51087] PHP Notice:  Undefined index: uname in /var/www/html/index.php on line 25, referer: https://ccsep/view/films.php
[Wed Oct 17 09:58:48.957149 2018] [php7:notice] [pid 1109] [client 192.168.56.1:51089] PHP Notice:  Undefined index: uname in /var/www/html/index.php on line 25, referer: https://ccsep/view/sign_up.php
[Wed Oct 17 09:58:48.957182 2018] [php7:notice] [pid 1109] [client 192.168.56.1:51089] PHP Notice:  Undefined index: logout in /var/www/html/index.php on line 29, referer: https://ccsep/view/sign_up.php
[Wed Oct 17 09:59:49.086644 2018] [php7:notice] [pid 1611] [client 192.168.56.1:51114] PHP Notice:  Undefined index: uname in /var/www/html/index.php on line 25
[Wed Oct 17 09:59:49.086682 2018] [php7:notice] [pid 1611] [client 192.168.56.1:51114] PHP Notice:  Undefined index: logout in /var/www/html/index.php on line 29
[Wed Oct 17 09:59:49.086688 2018] [php7:notice] [pid 1611] [client 192.168.56.1:51114] PHP Notice:  Undefined index: newbie in /var/www/html/index.php on line 33
[Wed Oct 17 09:59:49.114288 2018] [php7:notice] [pid 1611] [client 192.168.56.1:51114] PHP Notice:  Undefined index: uname in /var/www/html/index.php on line 25
[Wed Oct 17 09:59:49.114315 2018] [php7:notice] [pid 1611] [client 192.168.56.1:51114] PHP Notice:  Undefined index: logout in /var/www/html/index.php on line 29
[Wed Oct 17 09:59:49.114319 2018] [php7:notice] [pid 1611] [client 192.168.56.1:51114] PHP Notice:  Undefined index: newbie in /var/www/html/index.php on line 33
[Wed Oct 17 09:59:49.160225 2018] [php7:notice] [pid 1612] [client 192.168.56.1:51115] PHP Notice:  Undefined index: uname in /var/www/html/index.php on line 25
[Wed Oct 17 09:59:49.160264 2018] [php7:notice] [pid 1612] [client 192.168.56.1:51115] PHP Notice:  Undefined index: logout in /var/www/html/index.php on line 29
[Wed Oct 17 09:59:49.160273 2018] [php7:notice] [pid 1612] [client 192.168.56.1:51115] PHP Notice:  Undefined index: newbie in /var/www/html/index.php on line 33
[Wed Oct 17 09:59:49.202709 2018] [php7:notice] [pid 1612] [client 192.168.56.1:51115] PHP Notice:  Undefined index: uname in /var/www/html/index.php on line 25
[Wed Oct 17 09:59:49.202732 2018] [php7:notice] [pid 1612] [client 192.168.56.1:51115] PHP Notice:  Undefined index: logout in /var/www/html/index.php on line 29
[Wed Oct 17 09:59:49.202736 2018] [php7:notice] [pid 1612] [client 192.168.56.1:51115] PHP Notice:  Undefined index: newbie in /var/www/html/index.php on line 33
[Wed Oct 17 10:00:15.864137 2018] [php7:notice] [pid 1614] [client 192.168.56.1:51130] PHP Notice:  Undefined index: uname in /var/www/html/index.php on line 25
[Wed Oct 17 10:00:15.864179 2018] [php7:notice] [pid 1614] [client 192.168.56.1:51130] PHP Notice:  Undefined index: logout in /var/www/html/index.php on line 29
[Wed Oct 17 10:00:15.864186 2018] [php7:notice] [pid 1614] [client 192.168.56.1:51130] PHP Notice:  Undefined index: newbie in /var/www/html/index.php on line 33
[Wed Oct 17 10:00:15.893457 2018] [php7:notice] [pid 1614] [client 192.168.56.1:51130] PHP Notice:  Undefined index: uname in /var/www/html/index.php on line 25
[Wed Oct 17 10:00:15.893486 2018] [php7:notice] [pid 1614] [client 192.168.56.1:51130] PHP Notice:  Undefined index: logout in /var/www/html/index.php on line 29
[Wed Oct 17 10:00:15.893491 2018] [php7:notice] [pid 1614] [client 192.168.56.1:51130] PHP Notice:  Undefined index: newbie in /var/www/html/index.php on line 33
[Wed Oct 17 10:00:15.896347 2018] [php7:notice] [pid 1615] [client 192.168.56.1:51131] PHP Notice:  Undefined index: uname in /var/www/html/index.php on line 25
[Wed Oct 17 10:00:15.896385 2018] [php7:notice] [pid 1615] [client 192.168.56.1:51131] PHP Notice:  Undefined index: logout in /var/www/html/index.php on line 29
[Wed Oct 17 10:00:15.896389 2018] [php7:notice] [pid 1615] [client 192.168.56.1:51131] PHP Notice:  Undefined index: newbie in /var/www/html/index.php on line 33
[Wed Oct 17 10:00:15.933460 2018] [php7:notice] [pid 1615] [client 192.168.56.1:51131] PHP Notice:  Undefined index: uname in /var/www/html/index.php on line 25
[Wed Oct 17 10:00:15.933483 2018] [php7:notice] [pid 1615] [client 192.168.56.1:51131] PHP Notice:  Undefined index: logout in /var/www/html/index.php on line 29
[Wed Oct 17 10:00:15.933487 2018] [php7:notice] [pid 1615] [client 192.168.56.1:51131] PHP Notice:  Undefined index: newbie in /var/www/html/index.php on line 33
[Wed Oct 17 10:00:53.355154 2018] [php7:notice] [pid 1105] [client 192.168.56.1:51156] PHP Notice:  Undefined index: uname in /var/www/html/index.php on line 25
[Wed Oct 17 10:00:53.355366 2018] [php7:notice] [pid 1105] [client 192.168.56.1:51156] PHP Notice:  Undefined index: logout in /var/www/html/index.php on line 29
[Wed Oct 17 10:00:53.355377 2018] [php7:notice] [pid 1105] [client 192.168.56.1:51156] PHP Notice:  Undefined index: newbie in /var/www/html/index.php on line 33
[Wed Oct 17 10:00:53.387947 2018] [php7:notice] [pid 1105] [client 192.168.56.1:51156] PHP Notice:  Undefined index: uname in /var/www/html/index.php on line 25
[Wed Oct 17 10:00:53.387973 2018] [php7:notice] [pid 1105] [client 192.168.56.1:51156] PHP Notice:  Undefined index: logout in /var/www/html/index.php on line 29
[Wed Oct 17 10:00:53.387978 2018] [php7:notice] [pid 1105] [client 192.168.56.1:51156] PHP Notice:  Undefined index: newbie in /var/www/html/index.php on line 33
[Wed Oct 17 10:00:53.441897 2018] [php7:notice] [pid 1106] [client 192.168.56.1:51157] PHP Notice:  Undefined index: uname in /var/www/html/index.php on line 25
[Wed Oct 17 10:00:53.441934 2018] [php7:notice] [pid 1106] [client 192.168.56.1:51157] PHP Notice:  Undefined index: logout in /var/www/html/index.php on line 29
[Wed Oct 17 10:00:53.441938 2018] [php7:notice] [pid 1106] [client 192.168.56.1:51157] PHP Notice:  Undefined index: newbie in /var/www/html/index.php on line 33
[Wed Oct 17 10:00:53.471646 2018] [php7:notice] [pid 1106] [client 192.168.56.1:51157] PHP Notice:  Undefined index: uname in /var/www/html/index.php on line 25
[Wed Oct 17 10:00:53.471673 2018] [php7:notice] [pid 1106] [client 192.168.56.1:51157] PHP Notice:  Undefined index: logout in /var/www/html/index.php on line 29
[Wed Oct 17 10:00:53.471677 2018] [php7:notice] [pid 1106] [client 192.168.56.1:51157] PHP Notice:  Undefined index: newbie in /var/www/html/index.php on line 33
[Wed Oct 17 10:02:15.662573 2018] [php7:warn] [pid 1106] [client 192.168.56.1:51165] PHP Warning:  session_destroy(): Trying to destroy uninitialized session in /var/www/html/controller/logout.php on line 2, referer: https://ccsep/view/account.php
[Wed Oct 17 10:02:15.667230 2018] [php7:notice] [pid 1106] [client 192.168.56.1:51165] PHP Notice:  Undefined index: uname in /var/www/html/index.php on line 25, referer: https://ccsep/view/account.php
[Wed Oct 17 10:02:19.754394 2018] [php7:notice] [pid 1106] [client 192.168.56.1:51165] PHP Notice:  session_start(): A session had already been started - ignoring in /var/www/html/view/admin_panel.php on line 29, referer: https://ccsep/view/films.php
[Wed Oct 17 10:02:19.754441 2018] [php7:notice] [pid 1106] [client 192.168.56.1:51165] PHP Notice:  Undefined index: filmifyed in /var/www/html/view/admin_panel.php on line 43, referer: https://ccsep/view/films.php
[Wed Oct 17 10:02:24.160295 2018] [php7:notice] [pid 2081] [client 192.168.56.1:51173] PHP Notice:  session_start(): A session had already been started - ignoring in /var/www/html/view/admin_panel.php on line 29, referer: https://ccsep/view/admin_panel.php
[Wed Oct 17 10:02:24.160322 2018] [php7:notice] [pid 2081] [client 192.168.56.1:51173] PHP Notice:  Undefined index: filmifyed in /var/www/html/view/admin_panel.php on line 43, referer: https://ccsep/view/admin_panel.php
[Wed Oct 17 10:02:26.630061 2018] [php7:notice] [pid 2081] [client 192.168.56.1:51173] PHP Notice:  session_start(): A session had already been started - ignoring in /var/www/html/view/admin_panel.php on line 29, referer: https://ccsep/view/admin_panel.php
[Wed Oct 17 10:02:26.630093 2018] [php7:notice] [pid 2081] [client 192.168.56.1:51173] PHP Notice:  Undefined index: filmifyed in /var/www/html/view/admin_panel.php on line 43, referer: https://ccsep/view/admin_panel.php
[Wed Oct 17 10:02:54.488306 2018] [php7:notice] [pid 2088] [client 192.168.56.1:51174] PHP Notice:  session_start(): A session had already been started - ignoring in /var/www/html/view/admin_panel.php on line 29, referer: https://ccsep/view/admin_panel.php
[Wed Oct 17 10:02:54.488353 2018] [php7:notice] [pid 2088] [client 192.168.56.1:51174] PHP Notice:  Undefined index: filmifyed in /var/www/html/view/admin_panel.php on line 43, referer: https://ccsep/view/admin_panel.php
[Wed Oct 17 10:02:54.604434 2018] [php7:notice] [pid 2088] [client 192.168.56.1:51174] PHP Notice:  session_start(): A session had already been started - ignoring in /var/www/html/view/admin_panel.php on line 29, referer: https://ccsep/view/admin_panel.php
[Wed Oct 17 10:02:54.604455 2018] [php7:notice] [pid 2088] [client 192.168.56.1:51174] PHP Notice:  Undefined index: filmifyed in /var/www/html/view/admin_panel.php on line 43, referer: https://ccsep/view/admin_panel.php
[Wed Oct 17 10:02:55.773621 2018] [php7:notice] [pid 2088] [client 192.168.56.1:51174] PHP Notice:  session_start(): A session had already been started - ignoring in /var/www/html/view/admin_panel.php on line 29, referer: https://ccsep/view/admin_panel.php
[Wed Oct 17 10:02:55.773645 2018] [php7:notice] [pid 2088] [client 192.168.56.1:51174] PHP Notice:  Undefined index: filmifyed in /var/www/html/view/admin_panel.php on line 43, referer: https://ccsep/view/admin_panel.php
[Wed Oct 17 10:02:57.437471 2018] [php7:notice] [pid 2088] [client 192.168.56.1:51174] PHP Notice:  session_start(): A session had already been started - ignoring in /var/www/html/view/admin_panel.php on line 29, referer: https://ccsep/view/admin_panel.php
[Wed Oct 17 10:02:57.437492 2018] [php7:notice] [pid 2088] [client 192.168.56.1:51174] PHP Notice:  Undefined index: filmifyed in /var/www/html/view/admin_panel.php on line 43, referer: https://ccsep/view/admin_panel.php
[Wed Oct 17 10:02:57.864090 2018] [php7:notice] [pid 2077] [client 192.168.56.1:51184] PHP Notice:  Undefined index: uname in /var/www/html/index.php on line 25
[Wed Oct 17 10:02:57.864126 2018] [php7:notice] [pid 2077] [client 192.168.56.1:51184] PHP Notice:  Undefined index: logout in /var/www/html/index.php on line 29
[Wed Oct 17 10:02:57.864131 2018] [php7:notice] [pid 2077] [client 192.168.56.1:51184] PHP Notice:  Undefined index: newbie in /var/www/html/index.php on line 33
[Wed Oct 17 10:02:57.890547 2018] [php7:notice] [pid 2077] [client 192.168.56.1:51184] PHP Notice:  Undefined index: uname in /var/www/html/index.php on line 25
[Wed Oct 17 10:02:57.890588 2018] [php7:notice] [pid 2077] [client 192.168.56.1:51184] PHP Notice:  Undefined index: logout in /var/www/html/index.php on line 29
[Wed Oct 17 10:02:57.890596 2018] [php7:notice] [pid 2077] [client 192.168.56.1:51184] PHP Notice:  Undefined index: newbie in /var/www/html/index.php on line 33
[Wed Oct 17 10:02:57.936537 2018] [php7:notice] [pid 1106] [client 192.168.56.1:51186] PHP Notice:  Undefined index: uname in /var/www/html/index.php on line 25
[Wed Oct 17 10:02:57.936561 2018] [php7:notice] [pid 1106] [client 192.168.56.1:51186] PHP Notice:  Undefined index: logout in /var/www/html/index.php on line 29
[Wed Oct 17 10:02:57.936565 2018] [php7:notice] [pid 1106] [client 192.168.56.1:51186] PHP Notice:  Undefined index: newbie in /var/www/html/index.php on line 33
[Wed Oct 17 10:02:57.972604 2018] [php7:notice] [pid 1106] [client 192.168.56.1:51186] PHP Notice:  Undefined index: uname in /var/www/html/index.php on line 25
[Wed Oct 17 10:02:57.972634 2018] [php7:notice] [pid 1106] [client 192.168.56.1:51186] PHP Notice:  Undefined index: logout in /var/www/html/index.php on line 29
[Wed Oct 17 10:02:57.972640 2018] [php7:notice] [pid 1106] [client 192.168.56.1:51186] PHP Notice:  Undefined index: newbie in /var/www/html/index.php on line 33
[Wed Oct 17 10:02:58.962086 2018] [php7:notice] [pid 2088] [client 192.168.56.1:51174] PHP Notice:  session_start(): A session had already been started - ignoring in /var/www/html/view/admin_panel.php on line 29, referer: https://ccsep/view/admin_panel.php
[Wed Oct 17 10:02:58.962103 2018] [php7:notice] [pid 2088] [client 192.168.56.1:51174] PHP Notice:  Undefined index: filmifyed in /var/www/html/view/admin_panel.php on line 43, referer: https://ccsep/view/admin_panel.php
[Wed Oct 17 10:04:18.650457 2018] [php7:notice] [pid 2077] [client 192.168.56.1:51195] PHP Notice:  session_start(): A session had already been started - ignoring in /var/www/html/view/admin_panel.php on line 29, referer: https://ccsep/view/admin_panel.php
[Wed Oct 17 10:04:34.033968 2018] [php7:notice] [pid 2092] [client 192.168.56.1:51202] PHP Notice:  session_start(): A session had already been started - ignoring in /var/www/html/view/admin_panel.php on line 29, referer: https://ccsep/view/films.php
[Wed Oct 17 10:04:34.034013 2018] [php7:notice] [pid 2092] [client 192.168.56.1:51202] PHP Notice:  Undefined index: filmifyed in /var/www/html/view/admin_panel.php on line 43, referer: https://ccsep/view/films.php
[Wed Oct 17 10:04:42.106357 2018] [php7:notice] [pid 2094] [client 192.168.56.1:51206] PHP Notice:  session_start(): A session had already been started - ignoring in /var/www/html/view/admin_panel.php on line 29, referer: https://ccsep/view/films.php
[Wed Oct 17 10:04:42.106399 2018] [php7:notice] [pid 2094] [client 192.168.56.1:51206] PHP Notice:  Undefined index: filmifyed in /var/www/html/view/admin_panel.php on line 43, referer: https://ccsep/view/films.php
[Wed Oct 17 10:04:44.066169 2018] [php7:notice] [pid 2077] [client 192.168.56.1:51211] PHP Notice:  Undefined index: uname in /var/www/html/index.php on line 25
[Wed Oct 17 10:04:44.066199 2018] [php7:notice] [pid 2077] [client 192.168.56.1:51211] PHP Notice:  Undefined index: logout in /var/www/html/index.php on line 29
[Wed Oct 17 10:04:44.066204 2018] [php7:notice] [pid 2077] [client 192.168.56.1:51211] PHP Notice:  Undefined index: newbie in /var/www/html/index.php on line 33
[Wed Oct 17 10:04:44.088995 2018] [php7:notice] [pid 2077] [client 192.168.56.1:51211] PHP Notice:  Undefined index: uname in /var/www/html/index.php on line 25
[Wed Oct 17 10:04:44.089018 2018] [php7:notice] [pid 2077] [client 192.168.56.1:51211] PHP Notice:  Undefined index: logout in /var/www/html/index.php on line 29
[Wed Oct 17 10:04:44.089023 2018] [php7:notice] [pid 2077] [client 192.168.56.1:51211] PHP Notice:  Undefined index: newbie in /var/www/html/index.php on line 33
[Wed Oct 17 10:04:44.130286 2018] [php7:notice] [pid 2089] [client 192.168.56.1:51213] PHP Notice:  Undefined index: uname in /var/www/html/index.php on line 25
[Wed Oct 17 10:04:44.130311 2018] [php7:notice] [pid 2089] [client 192.168.56.1:51213] PHP Notice:  Undefined index: logout in /var/www/html/index.php on line 29
[Wed Oct 17 10:04:44.130315 2018] [php7:notice] [pid 2089] [client 192.168.56.1:51213] PHP Notice:  Undefined index: newbie in /var/www/html/index.php on line 33
[Wed Oct 17 10:04:44.160681 2018] [php7:notice] [pid 2089] [client 192.168.56.1:51213] PHP Notice:  Undefined index: uname in /var/www/html/index.php on line 25
[Wed Oct 17 10:04:44.160723 2018] [php7:notice] [pid 2089] [client 192.168.56.1:51213] PHP Notice:  Undefined index: logout in /var/www/html/index.php on line 29
[Wed Oct 17 10:04:44.160731 2018] [php7:notice] [pid 2089] [client 192.168.56.1:51213] PHP Notice:  Undefined index: newbie in /var/www/html/index.php on line 33
[Wed Oct 17 10:04:48.156749 2018] [php7:notice] [pid 1612] [client 192.168.56.1:51218] PHP Notice:  session_start(): A session had already been started - ignoring in /var/www/html/view/admin_panel.php on line 29, referer: https://ccsep/view/admin_panel.php
[Wed Oct 17 10:04:48.156783 2018] [php7:notice] [pid 1612] [client 192.168.56.1:51218] PHP Notice:  Undefined index: filmifyed in /var/www/html/view/admin_panel.php on line 43, referer: https://ccsep/view/admin_panel.php
[Wed Oct 17 10:04:59.434451 2018] [php7:notice] [pid 1106] [client 192.168.56.1:51219] PHP Notice:  session_start(): A session had already been started - ignoring in /var/www/html/view/admin_panel.php on line 29, referer: https://ccsep/view/admin_panel.php
[Wed Oct 17 10:04:59.434474 2018] [php7:notice] [pid 1106] [client 192.168.56.1:51219] PHP Notice:  Undefined index: filmifyed in /var/www/html/view/admin_panel.php on line 43, referer: https://ccsep/view/admin_panel.php
[Wed Oct 17 10:10:56.451877 2018] [php7:warn] [pid 1108] [client 192.168.56.1:51297] PHP Warning:  session_destroy(): Trying to destroy uninitialized session in /var/www/html/controller/logout.php on line 2, referer: https://ccsep/view/films.php
[Wed Oct 17 10:10:56.456789 2018] [php7:notice] [pid 1108] [client 192.168.56.1:51297] PHP Notice:  Undefined index: uname in /var/www/html/index.php on line 25, referer: https://ccsep/view/films.php
[Wed Oct 17 10:11:14.477363 2018] [php7:notice] [pid 2092] [client 192.168.56.1:51304] PHP Notice:  Undefined index: uname in /var/www/html/index.php on line 25, referer: https://ccsep/view/sign_up.php
[Wed Oct 17 10:11:14.477387 2018] [php7:notice] [pid 2092] [client 192.168.56.1:51304] PHP Notice:  Undefined index: logout in /var/www/html/index.php on line 29, referer: https://ccsep/view/sign_up.php
[Wed Oct 17 10:12:01.201439 2018] [php7:notice] [pid 2091] [client 192.168.56.1:51312] PHP Notice:  Undefined index: uname in /var/www/html/index.php on line 25, referer: https://ccsep/view/sign_up.php
[Wed Oct 17 10:12:01.201486 2018] [php7:notice] [pid 2091] [client 192.168.56.1:51312] PHP Notice:  Undefined index: logout in /var/www/html/index.php on line 29, referer: https://ccsep/view/sign_up.php
[Wed Oct 17 10:12:09.752376 2018] [php7:warn] [pid 2089] [client 192.168.56.1:51314] PHP Warning:  session_destroy(): Trying to destroy uninitialized session in /var/www/html/controller/logout.php on line 2, referer: https://ccsep/view/films.php
[Wed Oct 17 10:12:09.757889 2018] [php7:notice] [pid 2089] [client 192.168.56.1:51314] PHP Notice:  Undefined index: uname in /var/www/html/index.php on line 25, referer: https://ccsep/view/films.php
[Wed Oct 17 10:12:27.190139 2018] [php7:notice] [pid 2093] [client 192.168.56.1:51319] PHP Notice:  session_start(): A session had already been started - ignoring in /var/www/html/view/admin_panel.php on line 29
[Wed Oct 17 10:12:27.190193 2018] [php7:notice] [pid 2093] [client 192.168.56.1:51319] PHP Notice:  Undefined index: filmifyed in /var/www/html/view/admin_panel.php on line 43
[Wed Oct 17 10:12:27.629417 2018] [php7:notice] [pid 2093] [client 192.168.56.1:51319] PHP Notice:  session_start(): A session had already been started - ignoring in /var/www/html/view/admin_panel.php on line 29
[Wed Oct 17 10:12:27.629444 2018] [php7:notice] [pid 2093] [client 192.168.56.1:51319] PHP Notice:  Undefined index: filmifyed in /var/www/html/view/admin_panel.php on line 43
[Wed Oct 17 10:12:38.784272 2018] [php7:notice] [pid 2094] [client 192.168.56.1:51322] PHP Notice:  session_start(): A session had already been started - ignoring in /var/www/html/view/admin_panel.php on line 29, referer: https://ccsep/view/admin_panel.php
[Wed Oct 17 10:12:38.784302 2018] [php7:notice] [pid 2094] [client 192.168.56.1:51322] PHP Notice:  Undefined index: filmifyed in /var/www/html/view/admin_panel.php on line 43, referer: https://ccsep/view/admin_panel.php
[Wed Oct 17 10:12:44.201615 2018] [php7:warn] [pid 1107] [client 192.168.56.1:51326] PHP Warning:  session_destroy(): Trying to destroy uninitialized session in /var/www/html/controller/logout.php on line 2, referer: https://ccsep/view/admin_panel.php
[Wed Oct 17 10:12:44.206952 2018] [php7:notice] [pid 1107] [client 192.168.56.1:51326] PHP Notice:  Undefined index: uname in /var/www/html/index.php on line 25, referer: https://ccsep/view/admin_panel.php
[Wed Oct 17 10:13:04.681965 2018] [php7:notice] [pid 2077] [client 192.168.56.1:51330] PHP Notice:  session_start(): A session had already been started - ignoring in /var/www/html/view/admin_panel.php on line 29, referer: https://ccsep/view/account.php
[Wed Oct 17 10:13:04.681994 2018] [php7:notice] [pid 2077] [client 192.168.56.1:51330] PHP Notice:  Undefined index: filmifyed in /var/www/html/view/admin_panel.php on line 43, referer: https://ccsep/view/account.php
[Wed Oct 17 10:15:41.070383 2018] [php7:notice] [pid 1108] [client 192.168.56.1:51340] PHP Notice:  session_start(): A session had already been started - ignoring in /var/www/html/view/admin_panel.php on line 32, referer: https://ccsep/view/account.php
[Wed Oct 17 10:15:41.070432 2018] [php7:notice] [pid 1108] [client 192.168.56.1:51340] PHP Notice:  Undefined index: filmifyed in /var/www/html/view/admin_panel.php on line 46, referer: https://ccsep/view/account.php
[Wed Oct 17 10:15:43.366293 2018] [php7:notice] [pid 1108] [client 192.168.56.1:51340] PHP Notice:  session_start(): A session had already been started - ignoring in /var/www/html/view/admin_panel.php on line 32, referer: https://ccsep/view/admin_panel.php
[Wed Oct 17 10:15:43.366309 2018] [php7:notice] [pid 1108] [client 192.168.56.1:51340] PHP Notice:  Undefined index: filmifyed in /var/www/html/view/admin_panel.php on line 46, referer: https://ccsep/view/admin_panel.php
[Wed Oct 17 10:15:45.441538 2018] [php7:warn] [pid 1108] [client 192.168.56.1:51340] PHP Warning:  session_destroy(): Trying to destroy uninitialized session in /var/www/html/controller/logout.php on line 2, referer: https://ccsep/view/admin_panel.php
[Wed Oct 17 10:15:45.446769 2018] [php7:notice] [pid 1108] [client 192.168.56.1:51340] PHP Notice:  Undefined index: uname in /var/www/html/index.php on line 25, referer: https://ccsep/view/admin_panel.php
[Wed Oct 17 11:21:03.034270 2018] [php7:notice] [pid 2089] [client 192.168.56.1:52145] PHP Notice:  Undefined index: uname in /var/www/html/index.php on line 25
[Wed Oct 17 11:21:03.034295 2018] [php7:notice] [pid 2089] [client 192.168.56.1:52145] PHP Notice:  Undefined index: logout in /var/www/html/index.php on line 29
[Wed Oct 17 11:21:03.034299 2018] [php7:notice] [pid 2089] [client 192.168.56.1:52145] PHP Notice:  Undefined index: newbie in /var/www/html/index.php on line 33
[Wed Oct 17 11:21:03.171918 2018] [php7:notice] [pid 2089] [client 192.168.56.1:52145] PHP Notice:  Undefined index: uname in /var/www/html/index.php on line 25
[Wed Oct 17 11:21:03.171941 2018] [php7:notice] [pid 2089] [client 192.168.56.1:52145] PHP Notice:  Undefined index: logout in /var/www/html/index.php on line 29
[Wed Oct 17 11:21:03.171946 2018] [php7:notice] [pid 2089] [client 192.168.56.1:52145] PHP Notice:  Undefined index: newbie in /var/www/html/index.php on line 33
[Wed Oct 17 11:54:45.948438 2018] [php7:notice] [pid 1108] [client 192.168.56.1:52607] PHP Notice:  Undefined index: uname in /var/www/html/index.php on line 25
[Wed Oct 17 11:54:45.948481 2018] [php7:notice] [pid 1108] [client 192.168.56.1:52607] PHP Notice:  Undefined index: logout in /var/www/html/index.php on line 29
[Wed Oct 17 11:54:45.948486 2018] [php7:notice] [pid 1108] [client 192.168.56.1:52607] PHP Notice:  Undefined index: newbie in /var/www/html/index.php on line 33
[Wed Oct 17 11:54:48.773581 2018] [php7:notice] [pid 1108] [client 192.168.56.1:52607] PHP Notice:  Undefined index: uname in /var/www/html/index.php on line 25
[Wed Oct 17 11:54:48.773628 2018] [php7:notice] [pid 1108] [client 192.168.56.1:52607] PHP Notice:  Undefined index: logout in /var/www/html/index.php on line 29
[Wed Oct 17 11:54:48.773637 2018] [php7:notice] [pid 1108] [client 192.168.56.1:52607] PHP Notice:  Undefined index: newbie in /var/www/html/index.php on line 33
[Wed Oct 17 11:54:54.598527 2018] [php7:notice] [pid 2095] [client 192.168.56.1:52615] PHP Notice:  Undefined index: uname in /var/www/html/index.php on line 25
[Wed Oct 17 11:54:54.598563 2018] [php7:notice] [pid 2095] [client 192.168.56.1:52615] PHP Notice:  Undefined index: logout in /var/www/html/index.php on line 29
[Wed Oct 17 11:54:54.598567 2018] [php7:notice] [pid 2095] [client 192.168.56.1:52615] PHP Notice:  Undefined index: newbie in /var/www/html/index.php on line 33
[Wed Oct 17 11:55:11.015375 2018] [php7:warn] [pid 2094] [client 192.168.56.1:52620] PHP Warning:  include(../../../../../../../../../../etc/passwd.php): failed to open stream: No such file or directory in /var/www/html/controller/form-nommer.php on line 6
[Wed Oct 17 11:55:11.015423 2018] [php7:warn] [pid 2094] [client 192.168.56.1:52620] PHP Warning:  include(): Failed opening '../../../../../../../../../../etc/passwd.php' for inclusion (include_path='.:/usr/share/php') in /var/www/html/controller/form-nommer.php on line 6
[Wed Oct 17 11:55:23.794923 2018] [php7:warn] [pid 2091] [client 192.168.56.1:52623] PHP Warning:  include(/../../../../../../../../../../etc/passwd.php): failed to open stream: No such file or directory in /var/www/html/controller/form-nommer.php on line 6
[Wed Oct 17 11:55:23.794997 2018] [php7:warn] [pid 2091] [client 192.168.56.1:52623] PHP Warning:  include(): Failed opening '/../../../../../../../../../../etc/passwd.php' for inclusion (include_path='.:/usr/share/php') in /var/www/html/controller/form-nommer.php on line 6
[Wed Oct 17 11:55:30.176918 2018] [php7:warn] [pid 2077] [client 192.168.56.1:52626] PHP Warning:  include(/../../../../../../../../../../etc/passwd.php): failed to open stream: No such file or directory in /var/www/html/controller/form-nommer.php on line 6
[Wed Oct 17 11:55:30.176964 2018] [php7:warn] [pid 2077] [client 192.168.56.1:52626] PHP Warning:  include(): Failed opening '/../../../../../../../../../../etc/passwd.php' for inclusion (include_path='.:/usr/share/php') in /var/www/html/controller/form-nommer.php on line 6
[Wed Oct 17 11:55:32.233478 2018] [php7:warn] [pid 2077] [client 192.168.56.1:52626] PHP Warning:  include(/../../.php): failed to open stream: No such file or directory in /var/www/html/controller/form-nommer.php on line 6
[Wed Oct 17 11:55:32.233530 2018] [php7:warn] [pid 2077] [client 192.168.56.1:52626] PHP Warning:  include(): Failed opening '/../../.php' for inclusion (include_path='.:/usr/share/php') in /var/www/html/controller/form-nommer.php on line 6
[Wed Oct 17 11:55:37.726718 2018] [php7:warn] [pid 1108] [client 192.168.56.1:52628] PHP Warning:  include(/../../.php): failed to open stream: No such file or directory in /var/www/html/controller/form-nommer.php on line 6
[Wed Oct 17 11:55:37.726763 2018] [php7:warn] [pid 1108] [client 192.168.56.1:52628] PHP Warning:  include(): Failed opening '/../../.php' for inclusion (include_path='.:/usr/share/php') in /var/www/html/controller/form-nommer.php on line 6
[Wed Oct 17 11:55:46.319002 2018] [php7:warn] [pid 2095] [client 192.168.56.1:52629] PHP Warning:  include(/../view/admin_panel.php.php): failed to open stream: No such file or directory in /var/www/html/controller/form-nommer.php on line 6
[Wed Oct 17 11:55:46.319057 2018] [php7:warn] [pid 2095] [client 192.168.56.1:52629] PHP Warning:  include(): Failed opening '/../view/admin_panel.php.php' for inclusion (include_path='.:/usr/share/php') in /var/www/html/controller/form-nommer.php on line 6
[Wed Oct 17 11:55:50.850664 2018] [php7:notice] [pid 2095] [client 192.168.56.1:52629] PHP Notice:  Undefined index: uname in /var/www/html/index.php on line 25
[Wed Oct 17 11:55:50.850711 2018] [php7:notice] [pid 2095] [client 192.168.56.1:52629] PHP Notice:  Undefined index: logout in /var/www/html/index.php on line 29
[Wed Oct 17 11:55:50.850719 2018] [php7:notice] [pid 2095] [client 192.168.56.1:52629] PHP Notice:  Undefined index: newbie in /var/www/html/index.php on line 33
[Wed Oct 17 11:55:51.364118 2018] [php7:notice] [pid 2095] [client 192.168.56.1:52629] PHP Notice:  Undefined index: uname in /var/www/html/index.php on line 25
[Wed Oct 17 11:55:51.364183 2018] [php7:notice] [pid 2095] [client 192.168.56.1:52629] PHP Notice:  Undefined index: logout in /var/www/html/index.php on line 29
[Wed Oct 17 11:55:51.364198 2018] [php7:notice] [pid 2095] [client 192.168.56.1:52629] PHP Notice:  Undefined index: newbie in /var/www/html/index.php on line 33
[Wed Oct 17 11:56:07.295518 2018] [php7:notice] [pid 2094] [client 192.168.56.1:52638] PHP Notice:  Undefined index: uname in /var/www/html/index.php on line 25
[Wed Oct 17 11:56:07.295553 2018] [php7:notice] [pid 2094] [client 192.168.56.1:52638] PHP Notice:  Undefined index: logout in /var/www/html/index.php on line 29
[Wed Oct 17 11:56:07.295558 2018] [php7:notice] [pid 2094] [client 192.168.56.1:52638] PHP Notice:  Undefined index: newbie in /var/www/html/index.php on line 33
[Wed Oct 17 11:56:14.383194 2018] [php7:warn] [pid 2094] [client 192.168.56.1:52638] PHP Warning:  include(../../../../../../../../../../etc/passwd.php): failed to open stream: No such file or directory in /var/www/html/controller/form-nommer.php on line 6
[Wed Oct 17 11:56:14.383228 2018] [php7:warn] [pid 2094] [client 192.168.56.1:52638] PHP Warning:  include(): Failed opening '../../../../../../../../../../etc/passwd.php' for inclusion (include_path='.:/usr/share/php') in /var/www/html/controller/form-nommer.php on line 6
[Wed Oct 17 11:56:15.171910 2018] [php7:warn] [pid 2094] [client 192.168.56.1:52638] PHP Warning:  include(../../../../../../../../../../etc/passwd.php): failed to open stream: No such file or directory in /var/www/html/controller/form-nommer.php on line 6
[Wed Oct 17 11:56:15.171945 2018] [php7:warn] [pid 2094] [client 192.168.56.1:52638] PHP Warning:  include(): Failed opening '../../../../../../../../../../etc/passwd.php' for inclusion (include_path='.:/usr/share/php') in /var/www/html/controller/form-nommer.php on line 6
[Wed Oct 17 11:56:21.723427 2018] [php7:notice] [pid 2094] [client 192.168.56.1:52638] PHP Notice:  Undefined index: uname in /var/www/html/index.php on line 25
[Wed Oct 17 11:56:21.723459 2018] [php7:notice] [pid 2094] [client 192.168.56.1:52638] PHP Notice:  Undefined index: logout in /var/www/html/index.php on line 29
[Wed Oct 17 11:56:21.723464 2018] [php7:notice] [pid 2094] [client 192.168.56.1:52638] PHP Notice:  Undefined index: newbie in /var/www/html/index.php on line 33
[Wed Oct 17 11:59:45.036255 2018] [php7:warn] [pid 1107] [client 192.168.56.1:52786] PHP Warning:  include(../../../../../../../../../../etc/passwd.php): failed to open stream: No such file or directory in /var/www/html/controller/form-nommer.php on line 6
[Wed Oct 17 11:59:45.036334 2018] [php7:warn] [pid 1107] [client 192.168.56.1:52786] PHP Warning:  include(): Failed opening '../../../../../../../../../../etc/passwd.php' for inclusion (include_path='.:/usr/share/php') in /var/www/html/controller/form-nommer.php on line 6
[Wed Oct 17 11:59:57.673457 2018] [php7:warn] [pid 2091] [client 192.168.56.1:52787] PHP Warning:  include('../../../../../../../../etc/passwd'.php): failed to open stream: No such file or directory in /var/www/html/controller/form-nommer.php on line 6
[Wed Oct 17 11:59:57.673504 2018] [php7:warn] [pid 2091] [client 192.168.56.1:52787] PHP Warning:  include(): Failed opening ''../../../../../../../../etc/passwd'.php' for inclusion (include_path='.:/usr/share/php') in /var/www/html/controller/form-nommer.php on line 6
[Wed Oct 17 12:00:08.757708 2018] [php7:warn] [pid 2077] [client 192.168.56.1:52789] PHP Warning:  include(../../../../../../../../etc/passwd.php): failed to open stream: No such file or directory in /var/www/html/controller/form-nommer.php on line 6
[Wed Oct 17 12:00:08.757743 2018] [php7:warn] [pid 2077] [client 192.168.56.1:52789] PHP Warning:  include(): Failed opening '../../../../../../../../etc/passwd.php' for inclusion (include_path='.:/usr/share/php') in /var/www/html/controller/form-nommer.php on line 6
[Wed Oct 17 12:00:19.603541 2018] [php7:warn] [pid 1108] [client 192.168.56.1:52791] PHP Warning:  include(&quot;../../../../../../../../etc/passwd&quot;.php): failed to open stream: No such file or directory in /var/www/html/controller/form-nommer.php on line 6
[Wed Oct 17 12:00:19.603576 2018] [php7:warn] [pid 1108] [client 192.168.56.1:52791] PHP Warning:  include(): Failed opening '&quot;../../../../../../../../etc/passwd&quot;.php' for inclusion (include_path='.:/usr/share/php') in /var/www/html/controller/form-nommer.php on line 6
[Wed Oct 17 12:04:12.868529 2018] [php7:notice] [pid 2093] [client 192.168.56.1:52800] PHP Notice:  Undefined index: uname in /var/www/html/index.php on line 25
[Wed Oct 17 12:04:12.868563 2018] [php7:notice] [pid 2093] [client 192.168.56.1:52800] PHP Notice:  Undefined index: logout in /var/www/html/index.php on line 29
[Wed Oct 17 12:04:12.868567 2018] [php7:notice] [pid 2093] [client 192.168.56.1:52800] PHP Notice:  Undefined index: newbie in /var/www/html/index.php on line 33
[Wed Oct 17 12:04:13.175997 2018] [php7:notice] [pid 2093] [client 192.168.56.1:52800] PHP Notice:  Undefined index: uname in /var/www/html/index.php on line 25
[Wed Oct 17 12:04:13.176035 2018] [php7:notice] [pid 2093] [client 192.168.56.1:52800] PHP Notice:  Undefined index: logout in /var/www/html/index.php on line 29
[Wed Oct 17 12:04:13.176040 2018] [php7:notice] [pid 2093] [client 192.168.56.1:52800] PHP Notice:  Undefined index: newbie in /var/www/html/index.php on line 33
[Wed Oct 17 12:04:24.100398 2018] [php7:warn] [pid 2094] [client 192.168.56.1:52801] PHP Warning:  include(purchase_film): failed to open stream: No such file or directory in /var/www/html/controller/form-nommer.php on line 7, referer: https://ccsep/view/review.php?film=19
[Wed Oct 17 12:04:24.100432 2018] [php7:warn] [pid 2094] [client 192.168.56.1:52801] PHP Warning:  include(): Failed opening 'purchase_film' for inclusion (include_path='.:/usr/share/php') in /var/www/html/controller/form-nommer.php on line 7, referer: https://ccsep/view/review.php?film=19
[Wed Oct 17 12:04:35.572303 2018] [php7:warn] [pid 2091] [client 192.168.56.1:52806] PHP Warning:  include(purchase_film): failed to open stream: No such file or directory in /var/www/html/controller/form-nommer.php on line 7, referer: https://ccsep/view/review.php?film=19
[Wed Oct 17 12:04:35.572353 2018] [php7:warn] [pid 2091] [client 192.168.56.1:52806] PHP Warning:  include(): Failed opening 'purchase_film' for inclusion (include_path='.:/usr/share/php') in /var/www/html/controller/form-nommer.php on line 7, referer: https://ccsep/view/review.php?film=19
[Wed Oct 17 12:04:37.391468 2018] [php7:notice] [pid 2093] [client 192.168.56.1:52820] PHP Notice:  Undefined index: uname in /var/www/html/index.php on line 25
[Wed Oct 17 12:04:37.391509 2018] [php7:notice] [pid 2093] [client 192.168.56.1:52820] PHP Notice:  Undefined index: logout in /var/www/html/index.php on line 29
[Wed Oct 17 12:04:37.391517 2018] [php7:notice] [pid 2093] [client 192.168.56.1:52820] PHP Notice:  Undefined index: newbie in /var/www/html/index.php on line 33
[Wed Oct 17 12:04:37.417536 2018] [php7:notice] [pid 2093] [client 192.168.56.1:52820] PHP Notice:  Undefined index: uname in /var/www/html/index.php on line 25
[Wed Oct 17 12:04:37.417658 2018] [php7:notice] [pid 2093] [client 192.168.56.1:52820] PHP Notice:  Undefined index: logout in /var/www/html/index.php on line 29
[Wed Oct 17 12:04:37.417666 2018] [php7:notice] [pid 2093] [client 192.168.56.1:52820] PHP Notice:  Undefined index: newbie in /var/www/html/index.php on line 33
[Wed Oct 17 12:04:37.454718 2018] [php7:notice] [pid 2094] [client 192.168.56.1:52821] PHP Notice:  Undefined index: uname in /var/www/html/index.php on line 25
[Wed Oct 17 12:04:37.454741 2018] [php7:notice] [pid 2094] [client 192.168.56.1:52821] PHP Notice:  Undefined index: logout in /var/www/html/index.php on line 29
[Wed Oct 17 12:04:37.454745 2018] [php7:notice] [pid 2094] [client 192.168.56.1:52821] PHP Notice:  Undefined index: newbie in /var/www/html/index.php on line 33
[Wed Oct 17 12:04:37.489364 2018] [php7:notice] [pid 2094] [client 192.168.56.1:52821] PHP Notice:  Undefined index: uname in /var/www/html/index.php on line 25
[Wed Oct 17 12:04:37.489387 2018] [php7:notice] [pid 2094] [client 192.168.56.1:52821] PHP Notice:  Undefined index: logout in /var/www/html/index.php on line 29
[Wed Oct 17 12:04:37.489391 2018] [php7:notice] [pid 2094] [client 192.168.56.1:52821] PHP Notice:  Undefined index: newbie in /var/www/html/index.php on line 33
[Wed Oct 17 12:05:51.103376 2018] [php7:warn] [pid 2092] [client 192.168.56.1:52838] PHP Warning:  session_destroy(): Trying to destroy uninitialized session in /var/www/html/controller/logout.php on line 2, referer: https://ccsep/view/review.php?film=19
[Wed Oct 17 12:05:51.109352 2018] [php7:notice] [pid 2092] [client 192.168.56.1:52838] PHP Notice:  Undefined index: uname in /var/www/html/index.php on line 25, referer: https://ccsep/view/review.php?film=19
[Wed Oct 17 12:06:09.027203 2018] [php7:warn] [pid 2095] [client 192.168.56.1:52840] PHP Warning:  include(purchase_film): failed to open stream: No such file or directory in /var/www/html/controller/form-nommer.php on line 7
[Wed Oct 17 12:06:09.027262 2018] [php7:warn] [pid 2095] [client 192.168.56.1:52840] PHP Warning:  include(): Failed opening 'purchase_film' for inclusion (include_path='.:/usr/share/php') in /var/www/html/controller/form-nommer.php on line 7
[Wed Oct 17 12:08:41.744078 2018] [php7:notice] [pid 1106] [client 192.168.56.1:52855] PHP Notice:  session_start(): A session had already been started - ignoring in /var/www/html/view/admin_panel.php on line 29
[Wed Oct 17 12:08:41.744100 2018] [php7:notice] [pid 1106] [client 192.168.56.1:52855] PHP Notice:  Undefined index: filmifyed in /var/www/html/view/admin_panel.php on line 43
[Wed Oct 17 12:08:53.473811 2018] [php7:notice] [pid 1108] [client 192.168.56.1:52856] PHP Notice:  session_start(): A session had already been started - ignoring in /var/www/html/view/admin_panel.php on line 29, referer: https://ccsep/view/admin_panel.php
[Wed Oct 17 12:08:53.473847 2018] [php7:notice] [pid 1108] [client 192.168.56.1:52856] PHP Notice:  Undefined index: filmifyed in /var/www/html/view/admin_panel.php on line 43, referer: https://ccsep/view/admin_panel.php
[Wed Oct 17 12:09:12.326290 2018] [php7:warn] [pid 2677] [client 192.168.56.1:52858] PHP Warning:  session_destroy(): Trying to destroy uninitialized session in /var/www/html/controller/logout.php on line 2, referer: https://ccsep/view/admin_panel.php
[Wed Oct 17 12:09:12.331069 2018] [php7:notice] [pid 2677] [client 192.168.56.1:52858] PHP Notice:  Undefined index: uname in /var/www/html/index.php on line 25, referer: https://ccsep/view/admin_panel.php
[Wed Oct 17 12:09:17.002100 2018] [php7:notice] [pid 2677] [client 192.168.56.1:52858] PHP Notice:  session_start(): A session had already been started - ignoring in /var/www/html/view/admin_panel.php on line 29, referer: https://ccsep/view/films.php
[Wed Oct 17 12:09:17.002126 2018] [php7:notice] [pid 2677] [client 192.168.56.1:52858] PHP Notice:  Undefined index: filmifyed in /var/www/html/view/admin_panel.php on line 43, referer: https://ccsep/view/films.php
[Wed Oct 17 12:09:47.936503 2018] [php7:notice] [pid 2091] [client 192.168.56.1:52861] PHP Notice:  session_start(): A session had already been started - ignoring in /var/www/html/view/admin_panel.php on line 29, referer: https://ccsep/view/films.php
[Wed Oct 17 12:09:47.936532 2018] [php7:notice] [pid 2091] [client 192.168.56.1:52861] PHP Notice:  Undefined index: filmifyed in /var/www/html/view/admin_panel.php on line 43, referer: https://ccsep/view/films.php
[Wed Oct 17 12:10:48.174085 2018] [php7:notice] [pid 2092] [client 192.168.56.1:52869] PHP Notice:  Undefined index: uname in /var/www/html/index.php on line 25
[Wed Oct 17 12:10:48.174122 2018] [php7:notice] [pid 2092] [client 192.168.56.1:52869] PHP Notice:  Undefined index: logout in /var/www/html/index.php on line 29
[Wed Oct 17 12:10:48.174126 2018] [php7:notice] [pid 2092] [client 192.168.56.1:52869] PHP Notice:  Undefined index: newbie in /var/www/html/index.php on line 33
[Wed Oct 17 13:19:06.223372 2018] [php7:notice] [pid 2677] [client 192.168.56.1:53000] PHP Notice:  Undefined index: uname in /var/www/html/index.php on line 25, referer: https://ccsep/view/review.php?film=18
[Wed Oct 17 13:19:06.223419 2018] [php7:notice] [pid 2677] [client 192.168.56.1:53000] PHP Notice:  Undefined index: logout in /var/www/html/index.php on line 29, referer: https://ccsep/view/review.php?film=18
[Wed Oct 17 13:19:06.223430 2018] [php7:notice] [pid 2677] [client 192.168.56.1:53000] PHP Notice:  Undefined index: newbie in /var/www/html/index.php on line 33, referer: https://ccsep/view/review.php?film=18
[Wed Oct 17 13:49:14.484889 2018] [php7:notice] [pid 1106] [client 192.168.56.1:53053] PHP Notice:  Undefined index: uname in /var/www/html/index.php on line 25
[Wed Oct 17 13:49:14.484917 2018] [php7:notice] [pid 1106] [client 192.168.56.1:53053] PHP Notice:  Undefined index: logout in /var/www/html/index.php on line 29
[Wed Oct 17 13:49:14.484924 2018] [php7:notice] [pid 1106] [client 192.168.56.1:53053] PHP Notice:  Undefined index: newbie in /var/www/html/index.php on line 33
[Wed Oct 17 13:49:14.653438 2018] [php7:notice] [pid 1106] [client 192.168.56.1:53053] PHP Notice:  Undefined index: uname in /var/www/html/index.php on line 25
[Wed Oct 17 13:49:14.653463 2018] [php7:notice] [pid 1106] [client 192.168.56.1:53053] PHP Notice:  Undefined index: logout in /var/www/html/index.php on line 29
[Wed Oct 17 13:49:14.653468 2018] [php7:notice] [pid 1106] [client 192.168.56.1:53053] PHP Notice:  Undefined index: newbie in /var/www/html/index.php on line 33
[Wed Oct 17 14:31:38.092799 2018] [php7:notice] [pid 2677] [client 192.168.56.1:53571] PHP Notice:  Undefined index: uname in /var/www/html/index.php on line 25, referer: https://ccsep/view/review.php?film=21
[Wed Oct 17 14:31:38.092825 2018] [php7:notice] [pid 2677] [client 192.168.56.1:53571] PHP Notice:  Undefined index: logout in /var/www/html/index.php on line 29, referer: https://ccsep/view/review.php?film=21
[Wed Oct 17 14:31:38.092831 2018] [php7:notice] [pid 2677] [client 192.168.56.1:53571] PHP Notice:  Undefined index: newbie in /var/www/html/index.php on line 33, referer: https://ccsep/view/review.php?film=21
[Wed Oct 17 15:16:51.087887 2018] [php7:notice] [pid 2676] [client 192.168.56.1:53713] PHP Notice:  Undefined index: uname in /var/www/html/index.php on line 25
[Wed Oct 17 15:16:51.087922 2018] [php7:notice] [pid 2676] [client 192.168.56.1:53713] PHP Notice:  Undefined index: logout in /var/www/html/index.php on line 29
[Wed Oct 17 15:16:51.087927 2018] [php7:notice] [pid 2676] [client 192.168.56.1:53713] PHP Notice:  Undefined index: newbie in /var/www/html/index.php on line 33
[Wed Oct 17 15:16:51.145668 2018] [php7:notice] [pid 2676] [client 192.168.56.1:53713] PHP Notice:  Undefined index: uname in /var/www/html/index.php on line 25
[Wed Oct 17 15:16:51.145686 2018] [php7:notice] [pid 2676] [client 192.168.56.1:53713] PHP Notice:  Undefined index: logout in /var/www/html/index.php on line 29
[Wed Oct 17 15:16:51.145690 2018] [php7:notice] [pid 2676] [client 192.168.56.1:53713] PHP Notice:  Undefined index: newbie in /var/www/html/index.php on line 33
[Wed Oct 17 15:16:51.816740 2018] [php7:notice] [pid 2092] [client 192.168.56.1:53720] PHP Notice:  Undefined index: uname in /var/www/html/index.php on line 25
[Wed Oct 17 15:16:51.816772 2018] [php7:notice] [pid 2092] [client 192.168.56.1:53720] PHP Notice:  Undefined index: logout in /var/www/html/index.php on line 29
[Wed Oct 17 15:16:51.816776 2018] [php7:notice] [pid 2092] [client 192.168.56.1:53720] PHP Notice:  Undefined index: newbie in /var/www/html/index.php on line 33
[Wed Oct 17 15:28:05.576672 2018] [php7:notice] [pid 2095] [client 192.168.56.1:53790] PHP Notice:  Undefined index: uname in /var/www/html/index.php on line 25
[Wed Oct 17 15:28:05.576713 2018] [php7:notice] [pid 2095] [client 192.168.56.1:53790] PHP Notice:  Undefined index: logout in /var/www/html/index.php on line 29
[Wed Oct 17 15:28:05.576718 2018] [php7:notice] [pid 2095] [client 192.168.56.1:53790] PHP Notice:  Undefined index: newbie in /var/www/html/index.php on line 33
[Wed Oct 17 15:56:04.095575 2018] [php7:error] [pid 2077] [client 192.168.56.1:53965] PHP Fatal error:  Uncaught Error: Call to a member function fetch_array() on boolean in /var/www/html/controller/DBController.php:267\nStack trace:\n#0 /var/www/html/controller/login.php(12): DBController->checkLogin('<script>alert('...', 'lidjoeihf')\n#1 {main}\n  thrown in /var/www/html/controller/DBController.php on line 267, referer: https://ccsep/index.php?uname=%3Ch1%20class=%22display-1%22%3ELynx%3C/h1%3E
[Wed Oct 17 15:57:07.056049 2018] [php7:notice] [pid 2094] [client 192.168.56.1:53983] PHP Notice:  Undefined index: uname in /var/www/html/index.php on line 25
[Wed Oct 17 15:57:07.056081 2018] [php7:notice] [pid 2094] [client 192.168.56.1:53983] PHP Notice:  Undefined index: logout in /var/www/html/index.php on line 29
[Wed Oct 17 15:57:07.056085 2018] [php7:notice] [pid 2094] [client 192.168.56.1:53983] PHP Notice:  Undefined index: newbie in /var/www/html/index.php on line 33
[Wed Oct 17 15:57:43.470798 2018] [php7:notice] [pid 1106] [client 192.168.56.1:53989] PHP Notice:  session_start(): A session had already been started - ignoring in /var/www/html/view/admin_panel.php on line 29, referer: https://192.168.56.150/view/films.php
[Wed Oct 17 15:57:43.471140 2018] [php7:notice] [pid 1106] [client 192.168.56.1:53989] PHP Notice:  Undefined index: filmifyed in /var/www/html/view/admin_panel.php on line 43, referer: https://192.168.56.150/view/films.php
[Wed Oct 17 15:58:19.918738 2018] [php7:notice] [pid 2676] [client 192.168.56.1:53994] PHP Notice:  session_start(): A session had already been started - ignoring in /var/www/html/view/admin_panel.php on line 29, referer: https://192.168.56.150/view/films.php
[Wed Oct 17 15:58:19.918762 2018] [php7:notice] [pid 2676] [client 192.168.56.1:53994] PHP Notice:  Undefined index: filmifyed in /var/www/html/view/admin_panel.php on line 43, referer: https://192.168.56.150/view/films.php
[Wed Oct 17 16:03:01.780770 2018] [php7:warn] [pid 2095] [client 192.168.56.1:54019] PHP Warning:  session_destroy(): Trying to destroy uninitialized session in /var/www/html/controller/logout.php on line 2, referer: https://192.168.56.150/view/review.php?film=22
[Wed Oct 17 16:03:01.794722 2018] [php7:notice] [pid 2095] [client 192.168.56.1:54019] PHP Notice:  Undefined index: uname in /var/www/html/index.php on line 25, referer: https://192.168.56.150/view/review.php?film=22
[Wed Oct 17 16:06:28.126343 2018] [mpm_prefork:notice] [pid 1093] AH00169: caught SIGTERM, shutting down
[Thu Oct 18 01:03:30.780372 2018] [ssl:warn] [pid 1168] AH01909: 192.168.56.150:443:0 server certificate does NOT include an ID which matches the server name
[Thu Oct 18 01:03:31.042180 2018] [ssl:warn] [pid 1234] AH01909: 192.168.56.150:443:0 server certificate does NOT include an ID which matches the server name
[Thu Oct 18 01:03:31.043881 2018] [mpm_prefork:notice] [pid 1234] AH00163: Apache/2.4.29 (Ubuntu) OpenSSL/1.1.0g configured -- resuming normal operations
[Thu Oct 18 01:03:31.043911 2018] [core:notice] [pid 1234] AH00094: Command line: '/usr/sbin/apache2'
[Thu Oct 18 01:03:32.340853 2018] [php7:notice] [pid 1243] [client 192.168.56.1:49304] PHP Notice:  Undefined index: uname in /var/www/html/index.php on line 25
[Thu Oct 18 01:03:32.340903 2018] [php7:notice] [pid 1243] [client 192.168.56.1:49304] PHP Notice:  Undefined index: logout in /var/www/html/index.php on line 29
[Thu Oct 18 01:03:32.340906 2018] [php7:notice] [pid 1243] [client 192.168.56.1:49304] PHP Notice:  Undefined index: newbie in /var/www/html/index.php on line 33
[Thu Oct 18 02:00:11.815432 2018] [mpm_prefork:notice] [pid 1234] AH00169: caught SIGTERM, shutting down
[Thu Oct 18 04:44:46.878007 2018] [ssl:warn] [pid 1056] AH01909: 192.168.56.150:443:0 server certificate does NOT include an ID which matches the server name
[Thu Oct 18 04:44:47.051278 2018] [ssl:warn] [pid 1113] AH01909: 192.168.56.150:443:0 server certificate does NOT include an ID which matches the server name
[Thu Oct 18 04:44:47.057304 2018] [mpm_prefork:notice] [pid 1113] AH00163: Apache/2.4.29 (Ubuntu) OpenSSL/1.1.0g configured -- resuming normal operations
[Thu Oct 18 04:44:47.057336 2018] [core:notice] [pid 1113] AH00094: Command line: '/usr/sbin/apache2'
[Thu Oct 18 04:44:59.743445 2018] [php7:notice] [pid 1124] [client 192.168.56.1:50082] PHP Notice:  Undefined index: uname in /var/www/html/index.php on line 25
[Thu Oct 18 04:44:59.743470 2018] [php7:notice] [pid 1124] [client 192.168.56.1:50082] PHP Notice:  Undefined index: logout in /var/www/html/index.php on line 29
[Thu Oct 18 04:44:59.743474 2018] [php7:notice] [pid 1124] [client 192.168.56.1:50082] PHP Notice:  Undefined index: newbie in /var/www/html/index.php on line 33
[Thu Oct 18 04:44:59.795545 2018] [php7:notice] [pid 1124] [client 192.168.56.1:50082] PHP Notice:  Undefined index: uname in /var/www/html/index.php on line 25
[Thu Oct 18 04:44:59.795564 2018] [php7:notice] [pid 1124] [client 192.168.56.1:50082] PHP Notice:  Undefined index: logout in /var/www/html/index.php on line 29
[Thu Oct 18 04:44:59.795568 2018] [php7:notice] [pid 1124] [client 192.168.56.1:50082] PHP Notice:  Undefined index: newbie in /var/www/html/index.php on line 33
[Thu Oct 18 04:45:00.323852 2018] [php7:notice] [pid 1129] [client 192.168.56.1:50087] PHP Notice:  Undefined index: uname in /var/www/html/index.php on line 25
[Thu Oct 18 04:45:00.323897 2018] [php7:notice] [pid 1129] [client 192.168.56.1:50087] PHP Notice:  Undefined index: logout in /var/www/html/index.php on line 29
[Thu Oct 18 04:45:00.323901 2018] [php7:notice] [pid 1129] [client 192.168.56.1:50087] PHP Notice:  Undefined index: newbie in /var/www/html/index.php on line 33
[Thu Oct 18 04:47:36.991792 2018] [php7:warn] [pid 1129] [client 192.168.56.1:50098] PHP Warning:  session_destroy(): Trying to destroy uninitialized session in /var/www/html/controller/logout.php on line 2, referer: https://ccsep/view/review.php?film=18
[Thu Oct 18 04:47:36.996164 2018] [php7:notice] [pid 1129] [client 192.168.56.1:50098] PHP Notice:  Undefined index: uname in /var/www/html/index.php on line 25, referer: https://ccsep/view/review.php?film=18
[Thu Oct 18 05:20:42.204661 2018] [php7:notice] [pid 1124] [client 192.168.56.1:50168] PHP Notice:  Undefined index: uname in /var/www/html/index.php on line 25
[Thu Oct 18 05:20:42.204695 2018] [php7:notice] [pid 1124] [client 192.168.56.1:50168] PHP Notice:  Undefined index: logout in /var/www/html/index.php on line 29
[Thu Oct 18 05:20:42.204702 2018] [php7:notice] [pid 1124] [client 192.168.56.1:50168] PHP Notice:  Undefined index: newbie in /var/www/html/index.php on line 33
[Thu Oct 18 05:23:11.587174 2018] [php7:warn] [pid 1127] [client 192.168.56.1:50179] PHP Warning:  include(/etc/shadow): failed to open stream: Permission denied in /var/www/html/controller/form-nommer.php on line 7
[Thu Oct 18 05:23:11.587220 2018] [php7:warn] [pid 1127] [client 192.168.56.1:50179] PHP Warning:  include(): Failed opening '../../../../../../../etc/shadow' for inclusion (include_path='.:/usr/share/php') in /var/www/html/controller/form-nommer.php on line 7
[Thu Oct 18 05:24:46.740352 2018] [php7:warn] [pid 1124] [client 192.168.56.1:50185] PHP Warning:  include(/etc): failed to open stream: Success in /var/www/html/controller/form-nommer.php on line 7
[Thu Oct 18 05:24:46.740389 2018] [php7:warn] [pid 1124] [client 192.168.56.1:50185] PHP Warning:  include(): Failed opening '../../../../../../../../../../etc/' for inclusion (include_path='.:/usr/share/php') in /var/www/html/controller/form-nommer.php on line 7
[Thu Oct 18 05:24:50.793440 2018] [php7:warn] [pid 1124] [client 192.168.56.1:50185] PHP Warning:  include(../../../../../../../../../../etc/proc): failed to open stream: No such file or directory in /var/www/html/controller/form-nommer.php on line 7
[Thu Oct 18 05:24:50.793488 2018] [php7:warn] [pid 1124] [client 192.168.56.1:50185] PHP Warning:  include(): Failed opening '../../../../../../../../../../etc/proc' for inclusion (include_path='.:/usr/share/php') in /var/www/html/controller/form-nommer.php on line 7
[Thu Oct 18 05:25:07.720150 2018] [php7:notice] [pid 1127] [client 192.168.56.1:50191] PHP Notice:  Undefined index: uname in /var/www/html/index.php on line 25, referer: https://ccsep/controller/
[Thu Oct 18 05:25:07.720181 2018] [php7:notice] [pid 1127] [client 192.168.56.1:50191] PHP Notice:  Undefined index: logout in /var/www/html/index.php on line 29, referer: https://ccsep/controller/
[Thu Oct 18 05:25:07.720186 2018] [php7:notice] [pid 1127] [client 192.168.56.1:50191] PHP Notice:  Undefined index: newbie in /var/www/html/index.php on line 33, referer: https://ccsep/controller/
[Thu Oct 18 05:34:34.585487 2018] [php7:error] [pid 1124] [client 192.168.56.1:50228] PHP Fatal error:  Uncaught Error: Call to a member function fetch_assoc() on boolean in /var/www/html/controller/DBController.php:213\nStack trace:\n#0 /var/www/html/view/films.php(10): DBController->searchFilms(''')\n#1 {main}\n  thrown in /var/www/html/controller/DBController.php on line 213, referer: https://ccsep/view/films.php
[Thu Oct 18 05:34:56.384342 2018] [php7:error] [pid 1658] [client 192.168.56.1:50230] PHP Fatal error:  Uncaught Error: Call to a member function fetch_assoc() on boolean in /var/www/html/controller/DBController.php:213\nStack trace:\n#0 /var/www/html/view/films.php(10): DBController->searchFilms('x' ; select * f...')\n#1 {main}\n  thrown in /var/www/html/controller/DBController.php on line 213, referer: https://ccsep/view/films.php
[Thu Oct 18 05:35:00.147511 2018] [php7:error] [pid 1351] [client 192.168.56.1:50231] PHP Fatal error:  Uncaught Error: Call to a member function fetch_assoc() on boolean in /var/www/html/controller/DBController.php:213\nStack trace:\n#0 /var/www/html/view/films.php(10): DBController->searchFilms('x' ; select * f...')\n#1 {main}\n  thrown in /var/www/html/controller/DBController.php on line 213, referer: https://ccsep/view/films.php
[Thu Oct 18 05:50:07.974111 2018] [php7:notice] [pid 1129] [client 192.168.56.1:50692] PHP Notice:  Undefined index: uname in /var/www/html/index.php on line 25
[Thu Oct 18 05:50:07.974416 2018] [php7:notice] [pid 1129] [client 192.168.56.1:50692] PHP Notice:  Undefined index: logout in /var/www/html/index.php on line 29
[Thu Oct 18 05:50:07.974662 2018] [php7:notice] [pid 1129] [client 192.168.56.1:50692] PHP Notice:  Undefined index: newbie in /var/www/html/index.php on line 33
[Thu Oct 18 05:50:08.041237 2018] [php7:notice] [pid 1129] [client 192.168.56.1:50692] PHP Notice:  Undefined index: uname in /var/www/html/index.php on line 25
[Thu Oct 18 05:50:08.041255 2018] [php7:notice] [pid 1129] [client 192.168.56.1:50692] PHP Notice:  Undefined index: logout in /var/www/html/index.php on line 29
[Thu Oct 18 05:50:08.041259 2018] [php7:notice] [pid 1129] [client 192.168.56.1:50692] PHP Notice:  Undefined index: newbie in /var/www/html/index.php on line 33
[Thu Oct 18 06:11:26.352823 2018] [php7:notice] [pid 1123] [client 192.168.56.1:51215] PHP Notice:  Undefined index: uname in /var/www/html/index.php on line 25
[Thu Oct 18 06:11:26.352875 2018] [php7:notice] [pid 1123] [client 192.168.56.1:51215] PHP Notice:  Undefined index: logout in /var/www/html/index.php on line 29
[Thu Oct 18 06:11:26.352887 2018] [php7:notice] [pid 1123] [client 192.168.56.1:51215] PHP Notice:  Undefined index: newbie in /var/www/html/index.php on line 33
[Thu Oct 18 06:12:31.098704 2018] [php7:notice] [pid 1124] [client 192.168.56.1:51219] PHP Notice:  Undefined index: uname in /var/www/html/index.php on line 25, referer: https://ccsep/view/review.php?film=19
[Thu Oct 18 06:12:31.098750 2018] [php7:notice] [pid 1124] [client 192.168.56.1:51219] PHP Notice:  Undefined index: logout in /var/www/html/index.php on line 29, referer: https://ccsep/view/review.php?film=19
[Thu Oct 18 06:12:31.098759 2018] [php7:notice] [pid 1124] [client 192.168.56.1:51219] PHP Notice:  Undefined index: newbie in /var/www/html/index.php on line 33, referer: https://ccsep/view/review.php?film=19
[Thu Oct 18 06:12:42.775177 2018] [php7:error] [pid 1350] [client 192.168.56.1:51221] PHP Fatal error:  Uncaught Error: Call to a member function fetch_assoc() on boolean in /var/www/html/controller/DBController.php:213\nStack trace:\n#0 /var/www/html/view/films.php(10): DBController->searchFilms('x' ; select * f...')\n#1 {main}\n  thrown in /var/www/html/controller/DBController.php on line 213, referer: https://ccsep/view/films.php
[Thu Oct 18 06:13:11.937187 2018] [php7:error] [pid 1351] [client 192.168.56.1:51223] PHP Fatal error:  Uncaught Error: Call to a member function fetch_assoc() on boolean in /var/www/html/controller/DBController.php:213\nStack trace:\n#0 /var/www/html/view/films.php(10): DBController->searchFilms('x' OR '1' = '1'...')\n#1 {main}\n  thrown in /var/www/html/controller/DBController.php on line 213, referer: https://ccsep/view/films.php
[Thu Oct 18 06:13:43.154198 2018] [php7:error] [pid 1129] [client 192.168.56.1:51226] PHP Fatal error:  Uncaught Error: Call to a member function fetch_assoc() on boolean in /var/www/html/controller/DBController.php:213\nStack trace:\n#0 /var/www/html/view/films.php(10): DBController->searchFilms('x' ; SELECT * F...')\n#1 {main}\n  thrown in /var/www/html/controller/DBController.php on line 213, referer: https://ccsep/view/films.php
[Thu Oct 18 06:21:49.282103 2018] [php7:error] [pid 1350] [client 192.168.56.1:51246] PHP Fatal error:  Uncaught Error: Call to a member function fetch_array() on boolean in /var/www/html/controller/DBController.php:267\nStack trace:\n#0 /var/www/html/controller/login.php(12): DBController->checkLogin('x' ', 'kuhef')\n#1 {main}\n  thrown in /var/www/html/controller/DBController.php on line 267, referer: https://ccsep/index.php?uname=hello
[Thu Oct 18 06:25:03.435852 2018] [mpm_prefork:notice] [pid 1113] AH00171: Graceful restart requested, doing restart
AH00558: apache2: Could not reliably determine the server's fully qualified domain name, using 192.168.56.150. Set the 'ServerName' directive globally to suppress this message
