192.168.56.150:80 ::1 - - [17/Oct/2018:09:21:49 +0000] "OPTIONS * HTTP/1.0" 200 126 "-" "Apache/2.4.29 (Ubuntu) OpenSSL/1.1.0g (internal dummy connection)"
192.168.56.150:80 ::1 - - [17/Oct/2018:09:21:54 +0000] "OPTIONS * HTTP/1.0" 200 126 "-" "Apache/2.4.29 (Ubuntu) OpenSSL/1.1.0g (internal dummy connection)"
192.168.56.150:80 ::1 - - [17/Oct/2018:09:59:55 +0000] "OPTIONS * HTTP/1.0" 200 126 "-" "Apache/2.4.29 (Ubuntu) OpenSSL/1.1.0g (internal dummy connection)"
192.168.56.150:80 ::1 - - [17/Oct/2018:10:00:00 +0000] "OPTIONS * HTTP/1.0" 200 126 "-" "Apache/2.4.29 (Ubuntu) OpenSSL/1.1.0g (internal dummy connection)"
192.168.56.150:80 ::1 - - [17/Oct/2018:10:00:01 +0000] "OPTIONS * HTTP/1.0" 200 126 "-" "Apache/2.4.29 (Ubuntu) OpenSSL/1.1.0g (internal dummy connection)"
192.168.56.150:80 ::1 - - [17/Oct/2018:10:00:24 +0000] "OPTIONS * HTTP/1.0" 200 126 "-" "Apache/2.4.29 (Ubuntu) OpenSSL/1.1.0g (internal dummy connection)"
192.168.56.150:80 ::1 - - [17/Oct/2018:10:00:25 +0000] "OPTIONS * HTTP/1.0" 200 126 "-" "Apache/2.4.29 (Ubuntu) OpenSSL/1.1.0g (internal dummy connection)"
192.168.56.150:80 ::1 - - [17/Oct/2018:10:00:26 +0000] "OPTIONS * HTTP/1.0" 200 126 "-" "Apache/2.4.29 (Ubuntu) OpenSSL/1.1.0g (internal dummy connection)"
192.168.56.150:80 ::1 - - [17/Oct/2018:10:00:58 +0000] "OPTIONS * HTTP/1.0" 200 126 "-" "Apache/2.4.29 (Ubuntu) OpenSSL/1.1.0g (internal dummy connection)"
192.168.56.150:80 ::1 - - [17/Oct/2018:10:01:02 +0000] "OPTIONS * HTTP/1.0" 200 126 "-" "Apache/2.4.29 (Ubuntu) OpenSSL/1.1.0g (internal dummy connection)"
192.168.56.150:80 ::1 - - [17/Oct/2018:10:01:03 +0000] "OPTIONS * HTTP/1.0" 200 126 "-" "Apache/2.4.29 (Ubuntu) OpenSSL/1.1.0g (internal dummy connection)"
192.168.56.150:80 ::1 - - [17/Oct/2018:10:02:24 +0000] "OPTIONS * HTTP/1.0" 200 126 "-" "Apache/2.4.29 (Ubuntu) OpenSSL/1.1.0g (internal dummy connection)"
192.168.56.150:80 ::1 - - [17/Oct/2018:10:02:25 +0000] "OPTIONS * HTTP/1.0" 200 126 "-" "Apache/2.4.29 (Ubuntu) OpenSSL/1.1.0g (internal dummy connection)"
192.168.56.150:80 ::1 - - [17/Oct/2018:10:02:32 +0000] "OPTIONS * HTTP/1.0" 200 126 "-" "Apache/2.4.29 (Ubuntu) OpenSSL/1.1.0g (internal dummy connection)"
192.168.56.150:80 ::1 - - [17/Oct/2018:10:03:04 +0000] "OPTIONS * HTTP/1.0" 200 126 "-" "Apache/2.4.29 (Ubuntu) OpenSSL/1.1.0g (internal dummy connection)"
192.168.56.150:80 ::1 - - [17/Oct/2018:10:03:05 +0000] "OPTIONS * HTTP/1.0" 200 126 "-" "Apache/2.4.29 (Ubuntu) OpenSSL/1.1.0g (internal dummy connection)"
192.168.56.150:80 ::1 - - [17/Oct/2018:10:04:26 +0000] "OPTIONS * HTTP/1.0" 200 126 "-" "Apache/2.4.29 (Ubuntu) OpenSSL/1.1.0g (internal dummy connection)"
192.168.56.150:80 ::1 - - [17/Oct/2018:10:04:27 +0000] "OPTIONS * HTTP/1.0" 200 126 "-" "Apache/2.4.29 (Ubuntu) OpenSSL/1.1.0g (internal dummy connection)"
192.168.56.150:80 ::1 - - [17/Oct/2018:10:04:28 +0000] "OPTIONS * HTTP/1.0" 200 126 "-" "Apache/2.4.29 (Ubuntu) OpenSSL/1.1.0g (internal dummy connection)"
192.168.56.150:80 ::1 - - [17/Oct/2018:10:05:29 +0000] "OPTIONS * HTTP/1.0" 200 126 "-" "Apache/2.4.29 (Ubuntu) OpenSSL/1.1.0g (internal dummy connection)"
192.168.56.150:80 ::1 - - [17/Oct/2018:12:04:42 +0000] "OPTIONS * HTTP/1.0" 200 126 "-" "Apache/2.4.29 (Ubuntu) OpenSSL/1.1.0g (internal dummy connection)"
192.168.56.150:80 ::1 - - [17/Oct/2018:12:04:43 +0000] "OPTIONS * HTTP/1.0" 200 126 "-" "Apache/2.4.29 (Ubuntu) OpenSSL/1.1.0g (internal dummy connection)"
192.168.56.150:80 ::1 - - [17/Oct/2018:12:04:59 +0000] "OPTIONS * HTTP/1.0" 200 126 "-" "Apache/2.4.29 (Ubuntu) OpenSSL/1.1.0g (internal dummy connection)"
192.168.56.150:80 192.168.56.1 - - [17/Oct/2018:15:57:07 +0000] "GET / HTTP/1.1" 302 526 "-" "Mozilla/5.0 (Macintosh; Intel Mac OS X 10.14; rv:62.0) Gecko/20100101 Firefox/62.0"
192.168.56.150:80 ::1 - - [17/Oct/2018:15:57:48 +0000] "OPTIONS * HTTP/1.0" 200 126 "-" "Apache/2.4.29 (Ubuntu) OpenSSL/1.1.0g (internal dummy connection)"
