update-alternatives 2018-04-26 19:07:31: run with --quiet --install /usr/bin/awk awk /usr/bin/mawk 5 --slave /usr/share/man/man1/awk.1.gz awk.1.gz /usr/share/man/man1/mawk.1.gz --slave /usr/bin/nawk nawk /usr/bin/mawk --slave /usr/share/man/man1/nawk.1.gz nawk.1.gz /usr/share/man/man1/mawk.1.gz
update-alternatives 2018-04-26 19:07:31: link group awk updated to point to /usr/bin/mawk
update-alternatives 2018-04-26 19:07:36: run with --quiet --install /usr/bin/awk awk /usr/bin/mawk 5 --slave /usr/share/man/man1/awk.1.gz awk.1.gz /usr/share/man/man1/mawk.1.gz --slave /usr/bin/nawk nawk /usr/bin/mawk --slave /usr/share/man/man1/nawk.1.gz nawk.1.gz /usr/share/man/man1/mawk.1.gz
update-alternatives 2018-04-26 19:07:36: run with --install /usr/share/man/man7/builtins.7.gz builtins.7.gz /usr/share/man/man7/bash-builtins.7.gz 10
update-alternatives 2018-04-26 19:07:36: link group builtins.7.gz updated to point to /usr/share/man/man7/bash-builtins.7.gz
update-alternatives 2018-04-26 19:07:36: run with --install /usr/sbin/rmt rmt /usr/sbin/rmt-tar 50 --slave /usr/share/man/man8/rmt.8.gz rmt.8.gz /usr/share/man/man8/rmt-tar.8.gz
update-alternatives 2018-04-26 19:07:36: link group rmt updated to point to /usr/sbin/rmt-tar
update-alternatives 2018-04-26 19:07:36: run with --install /usr/bin/pager pager /bin/more 50 --slave /usr/share/man/man1/pager.1.gz pager.1.gz /usr/share/man/man1/more.1.gz
update-alternatives 2018-04-26 19:07:36: link group pager updated to point to /bin/more
update-alternatives 2018-04-26 19:07:36: run with --remove pager /usr/bin/pg
update-alternatives 2018-04-26 19:07:37: run with --install /usr/bin/w w /usr/bin/w.procps 50 --slave /usr/share/man/man1/w.1.gz w.1.gz /usr/share/man/man1/w.procps.1.gz
update-alternatives 2018-04-26 19:07:37: link group w updated to point to /usr/bin/w.procps
update-alternatives 2018-04-26 19:08:03: run with --install /bin/mt mt /bin/mt-gnu 10 --slave /usr/share/man/man1/mt.1.gz mt.1.gz /usr/share/man/man1/mt-gnu.1.gz
update-alternatives 2018-04-26 19:08:03: link group mt updated to point to /bin/mt-gnu
update-alternatives 2018-04-26 19:08:03: run with --quiet --install /usr/bin/pager pager /bin/less 77 --slave /usr/share/man/man1/pager.1.gz pager.1.gz /usr/share/man/man1/less.1.gz
update-alternatives 2018-04-26 19:08:03: link group pager updated to point to /bin/less
update-alternatives 2018-04-26 19:08:03: run with --quiet --remove pager /usr/bin/less
update-alternatives 2018-04-26 19:08:03: run with --quiet --install /usr/bin/pager pager /bin/less 77 --slave /usr/share/man/man1/pager.1.gz pager.1.gz /usr/share/man/man1/less.1.gz
update-alternatives 2018-04-26 19:08:03: run with --quiet --remove pager /usr/bin/less
update-alternatives 2018-04-26 19:08:04: run with --install /bin/nc nc /bin/nc.openbsd 50 --slave /bin/netcat netcat /bin/nc.openbsd --slave /usr/share/man/man1/nc.1.gz nc.1.gz /usr/share/man/man1/nc_openbsd.1.gz --slave /usr/share/man/man1/netcat.1.gz netcat.1.gz /usr/share/man/man1/nc_openbsd.1.gz
update-alternatives 2018-04-26 19:08:04: link group nc updated to point to /bin/nc.openbsd
update-alternatives 2018-04-26 19:08:04: run with --install /usr/bin/lzma lzma /usr/bin/xz 20 --slave /usr/share/man/man1/lzma.1.gz lzma.1.gz /usr/share/man/man1/xz.1.gz --slave /usr/bin/unlzma unlzma /usr/bin/unxz --slave /usr/share/man/man1/unlzma.1.gz unlzma.1.gz /usr/share/man/man1/unxz.1.gz --slave /usr/bin/lzcat lzcat /usr/bin/xzcat --slave /usr/share/man/man1/lzcat.1.gz lzcat.1.gz /usr/share/man/man1/xzcat.1.gz --slave /usr/bin/lzmore lzmore /usr/bin/xzmore --slave /usr/share/man/man1/lzmore.1.gz lzmore.1.gz /usr/share/man/man1/xzmore.1.gz --slave /usr/bin/lzless lzless /usr/bin/xzless --slave /usr/share/man/man1/lzless.1.gz lzless.1.gz /usr/share/man/man1/xzless.1.gz --slave /usr/bin/lzdiff lzdiff /usr/bin/xzdiff --slave /usr/share/man/man1/lzdiff.1.gz lzdiff.1.gz /usr/share/man/man1/xzdiff.1.gz --slave /usr/bin/lzcmp lzcmp /usr/bin/xzcmp --slave /usr/share/man/man1/lzcmp.1.gz lzcmp.1.gz /usr/share/man/man1/xzcmp.1.gz --slave /usr/bin/lzgrep lzgrep /usr/bin/xzgrep --slave /usr/share/man/man1/lzgrep.1.gz lzgrep.1.gz /usr/share/man/man1/xzgrep.1.gz --slave /usr/bin/lzegrep lzegrep /usr/bin/xzegrep --slave /usr/share/man/man1/lzegrep.1.gz lzegrep.1.gz /usr/share/man/man1/xzegrep.1.gz --slave /usr/bin/lzfgrep lzfgrep /usr/bin/xzfgrep --slave /usr/share/man/man1/lzfgrep.1.gz lzfgrep.1.gz /usr/share/man/man1/xzfgrep.1.gz
update-alternatives 2018-04-26 19:08:04: link group lzma updated to point to /usr/bin/xz
update-alternatives 2018-04-26 19:08:07: run with --install /usr/bin/rview rview /usr/bin/vim.tiny 15
update-alternatives 2018-04-26 19:08:07: link group rview updated to point to /usr/bin/vim.tiny
update-alternatives 2018-04-26 19:08:07: run with --install /usr/bin/vi vi /usr/bin/vim.tiny 15 --slave /usr/share/man/fr/man1/vi.1.gz vi.fr.1.gz /usr/share/man/fr/man1/vim.1.gz --slave /usr/share/man/it/man1/vi.1.gz vi.it.1.gz /usr/share/man/it/man1/vim.1.gz --slave /usr/share/man/pl/man1/vi.1.gz vi.pl.1.gz /usr/share/man/pl/man1/vim.1.gz --slave /usr/share/man/ru/man1/vi.1.gz vi.ru.1.gz /usr/share/man/ru/man1/vim.1.gz --slave /usr/share/man/ja/man1/vi.1.gz vi.ja.1.gz /usr/share/man/ja/man1/vim.1.gz --slave /usr/share/man/man1/vi.1.gz vi.1.gz /usr/share/man/man1/vim.1.gz
update-alternatives 2018-04-26 19:08:07: link group vi updated to point to /usr/bin/vim.tiny
update-alternatives 2018-04-26 19:08:07: run with --install /usr/bin/view view /usr/bin/vim.tiny 15 --slave /usr/share/man/fr/man1/view.1.gz view.fr.1.gz /usr/share/man/fr/man1/vim.1.gz --slave /usr/share/man/it/man1/view.1.gz view.it.1.gz /usr/share/man/it/man1/vim.1.gz --slave /usr/share/man/pl/man1/view.1.gz view.pl.1.gz /usr/share/man/pl/man1/vim.1.gz --slave /usr/share/man/ru/man1/view.1.gz view.ru.1.gz /usr/share/man/ru/man1/vim.1.gz --slave /usr/share/man/ja/man1/view.1.gz view.ja.1.gz /usr/share/man/ja/man1/vim.1.gz --slave /usr/share/man/man1/view.1.gz view.1.gz /usr/share/man/man1/vim.1.gz
update-alternatives 2018-04-26 19:08:07: link group view updated to point to /usr/bin/vim.tiny
update-alternatives 2018-04-26 19:08:07: run with --install /usr/bin/ex ex /usr/bin/vim.tiny 15 --slave /usr/share/man/fr/man1/ex.1.gz ex.fr.1.gz /usr/share/man/fr/man1/vim.1.gz --slave /usr/share/man/it/man1/ex.1.gz ex.it.1.gz /usr/share/man/it/man1/vim.1.gz --slave /usr/share/man/pl/man1/ex.1.gz ex.pl.1.gz /usr/share/man/pl/man1/vim.1.gz --slave /usr/share/man/ru/man1/ex.1.gz ex.ru.1.gz /usr/share/man/ru/man1/vim.1.gz --slave /usr/share/man/ja/man1/ex.1.gz ex.ja.1.gz /usr/share/man/ja/man1/vim.1.gz --slave /usr/share/man/man1/ex.1.gz ex.1.gz /usr/share/man/man1/vim.1.gz
update-alternatives 2018-04-26 19:08:07: link group ex updated to point to /usr/bin/vim.tiny
update-alternatives 2018-04-26 19:08:07: run with --install /usr/bin/editor editor /usr/bin/vim.tiny 15 --slave /usr/share/man/fr/man1/editor.1.gz editor.fr.1.gz /usr/share/man/fr/man1/vim.1.gz --slave /usr/share/man/it/man1/editor.1.gz editor.it.1.gz /usr/share/man/it/man1/vim.1.gz --slave /usr/share/man/pl/man1/editor.1.gz editor.pl.1.gz /usr/share/man/pl/man1/vim.1.gz --slave /usr/share/man/ru/man1/editor.1.gz editor.ru.1.gz /usr/share/man/ru/man1/vim.1.gz --slave /usr/share/man/ja/man1/editor.1.gz editor.ja.1.gz /usr/share/man/ja/man1/vim.1.gz --slave /usr/share/man/man1/editor.1.gz editor.1.gz /usr/share/man/man1/vim.1.gz
update-alternatives 2018-04-26 19:08:07: link group editor updated to point to /usr/bin/vim.tiny
update-alternatives 2018-04-26 19:08:11: run with --install /etc/newt/palette newt-palette /etc/newt/palette.ubuntu 50
update-alternatives 2018-04-26 19:08:11: link group newt-palette updated to point to /etc/newt/palette.ubuntu
update-alternatives 2018-04-26 19:08:11: run with --install /etc/newt/palette newt-palette /etc/newt/palette.original 20
update-alternatives 2018-04-26 19:08:13: run with --install /etc/vtrgb vtrgb /etc/console-setup/vtrgb 50
update-alternatives 2018-04-26 19:08:13: link group vtrgb updated to point to /etc/console-setup/vtrgb
update-alternatives 2018-04-26 19:08:13: run with --install /etc/vtrgb vtrgb /etc/console-setup/vtrgb.vga 20
update-alternatives 2018-04-26 19:09:10: run with --install /usr/bin/infobrowser infobrowser /usr/bin/info 60 --slave /usr/share/man/man1/infobrowser.1.gz infobrowser.1.gz /usr/share/man/man1/info.1.gz
update-alternatives 2018-04-26 19:09:10: link group infobrowser updated to point to /usr/bin/info
update-alternatives 2018-04-26 19:09:13: run with --install /usr/bin/locate locate /usr/bin/mlocate 80 --slave /usr/share/man/man1/locate.1.gz locate.1.gz /usr/share/man/man1/mlocate.1.gz --slave /usr/bin/updatedb updatedb /usr/bin/updatedb.mlocate --slave /usr/share/man/man8/updatedb.8.gz updatedb.8.gz /usr/share/man/man8/updatedb.mlocate.8.gz
update-alternatives 2018-04-26 19:09:13: link group locate updated to point to /usr/bin/mlocate
update-alternatives 2018-04-26 19:09:15: run with --quiet --install /usr/bin/editor editor /bin/ed -100 --slave /usr/share/man/man1/editor.1.gz editor.1.gz /usr/share/man/man1/ed.1.gz
update-alternatives 2018-04-26 19:09:15: run with --quiet --install /usr/bin/awk awk /usr/bin/gawk 10 --slave /usr/share/man/man1/awk.1.gz awk.1.gz /usr/share/man/man1/gawk.1.gz --slave /usr/bin/nawk nawk /usr/bin/gawk --slave /usr/share/man/man1/nawk.1.gz nawk.1.gz /usr/share/man/man1/gawk.1.gz
update-alternatives 2018-04-26 19:09:15: link group awk updated to point to /usr/bin/gawk
update-alternatives 2018-04-26 19:09:19: run with --install /usr/bin/editor editor /bin/nano 40 --slave /usr/share/man/man1/editor.1.gz editor.1.gz /usr/share/man/man1/nano.1.gz
update-alternatives 2018-04-26 19:09:19: link group editor updated to point to /bin/nano
update-alternatives 2018-04-26 19:09:19: run with --install /usr/bin/pico pico /bin/nano 10 --slave /usr/share/man/man1/pico.1.gz pico.1.gz /usr/share/man/man1/nano.1.gz
update-alternatives 2018-04-26 19:09:19: link group pico updated to point to /bin/nano
update-alternatives 2018-04-26 19:09:20: run with --install /usr/bin/traceroute6 traceroute6 /usr/bin/traceroute6.iputils 100 --slave /usr/share/man/man8/traceroute6.8.gz traceroute6.8.gz /usr/share/man/man8/traceroute6.iputils.8.gz
update-alternatives 2018-04-26 19:09:20: link group traceroute6 updated to point to /usr/bin/traceroute6.iputils
update-alternatives 2018-04-26 19:09:21: run with --install /usr/bin/telnet telnet /usr/bin/telnet.netkit 100 --slave /usr/share/man/man1/telnet.1.gz telnet.1.gz /usr/share/man/man1/telnet.netkit.1.gz
update-alternatives 2018-04-26 19:09:21: link group telnet updated to point to /usr/bin/telnet.netkit
update-alternatives 2018-04-26 19:09:21: run with --install /usr/bin/ftp ftp /usr/bin/netkit-ftp 100 --slave /usr/bin/pftp pftp /usr/bin/netkit-ftp --slave /usr/share/man/man1/ftp.1.gz ftp.1.gz /usr/share/man/man1/netkit-ftp.1.gz --slave /usr/share/man/man1/pftp.1.gz pftp.1.gz /usr/share/man/man1/netkit-ftp.1.gz --slave /usr/share/man/man5/netrc.5.gz netrc.5.gz /usr/share/man/man5/netkit-netrc.5.gz
update-alternatives 2018-04-26 19:09:21: link group ftp updated to point to /usr/bin/netkit-ftp
update-alternatives 2018-04-26 19:09:25: run with --install /usr/bin/write write /usr/bin/bsd-write 100 --slave /usr/share/man/man1/write.1.gz write.1.gz /usr/share/man/man1/bsd-write.1.gz
update-alternatives 2018-04-26 19:09:25: link group write updated to point to /usr/bin/bsd-write
update-alternatives 2018-04-26 19:09:25: run with --install /usr/bin/from from /usr/bin/bsd-from 10 --slave /usr/share/man/man1/from.1.gz from.1.gz /usr/share/man/man1/bsd-from.1.gz
update-alternatives 2018-04-26 19:09:25: link group from updated to point to /usr/bin/bsd-from
update-alternatives 2018-04-26 19:09:27: run with --install /usr/bin/vim vim /usr/bin/vim.basic 30
update-alternatives 2018-04-26 19:09:27: link group vim updated to point to /usr/bin/vim.basic
update-alternatives 2018-04-26 19:09:27: run with --install /usr/bin/vimdiff vimdiff /usr/bin/vim.basic 30
update-alternatives 2018-04-26 19:09:27: link group vimdiff updated to point to /usr/bin/vim.basic
update-alternatives 2018-04-26 19:09:27: run with --install /usr/bin/rvim rvim /usr/bin/vim.basic 30
update-alternatives 2018-04-26 19:09:27: link group rvim updated to point to /usr/bin/vim.basic
update-alternatives 2018-04-26 19:09:27: run with --install /usr/bin/rview rview /usr/bin/vim.basic 30
update-alternatives 2018-04-26 19:09:27: link group rview updated to point to /usr/bin/vim.basic
update-alternatives 2018-04-26 19:09:27: run with --install /usr/bin/vi vi /usr/bin/vim.basic 30 --slave /usr/share/man/fr/man1/vi.1.gz vi.fr.1.gz /usr/share/man/fr/man1/vim.1.gz --slave /usr/share/man/it/man1/vi.1.gz vi.it.1.gz /usr/share/man/it/man1/vim.1.gz --slave /usr/share/man/pl/man1/vi.1.gz vi.pl.1.gz /usr/share/man/pl/man1/vim.1.gz --slave /usr/share/man/ru/man1/vi.1.gz vi.ru.1.gz /usr/share/man/ru/man1/vim.1.gz --slave /usr/share/man/ja/man1/vi.1.gz vi.ja.1.gz /usr/share/man/ja/man1/vim.1.gz --slave /usr/share/man/man1/vi.1.gz vi.1.gz /usr/share/man/man1/vim.1.gz
update-alternatives 2018-04-26 19:09:27: link group vi updated to point to /usr/bin/vim.basic
update-alternatives 2018-04-26 19:09:27: run with --install /usr/bin/view view /usr/bin/vim.basic 30 --slave /usr/share/man/fr/man1/view.1.gz view.fr.1.gz /usr/share/man/fr/man1/vim.1.gz --slave /usr/share/man/it/man1/view.1.gz view.it.1.gz /usr/share/man/it/man1/vim.1.gz --slave /usr/share/man/pl/man1/view.1.gz view.pl.1.gz /usr/share/man/pl/man1/vim.1.gz --slave /usr/share/man/ru/man1/view.1.gz view.ru.1.gz /usr/share/man/ru/man1/vim.1.gz --slave /usr/share/man/ja/man1/view.1.gz view.ja.1.gz /usr/share/man/ja/man1/vim.1.gz --slave /usr/share/man/man1/view.1.gz view.1.gz /usr/share/man/man1/vim.1.gz
update-alternatives 2018-04-26 19:09:27: link group view updated to point to /usr/bin/vim.basic
update-alternatives 2018-04-26 19:09:27: run with --install /usr/bin/ex ex /usr/bin/vim.basic 30 --slave /usr/share/man/fr/man1/ex.1.gz ex.fr.1.gz /usr/share/man/fr/man1/vim.1.gz --slave /usr/share/man/it/man1/ex.1.gz ex.it.1.gz /usr/share/man/it/man1/vim.1.gz --slave /usr/share/man/pl/man1/ex.1.gz ex.pl.1.gz /usr/share/man/pl/man1/vim.1.gz --slave /usr/share/man/ru/man1/ex.1.gz ex.ru.1.gz /usr/share/man/ru/man1/vim.1.gz --slave /usr/share/man/ja/man1/ex.1.gz ex.ja.1.gz /usr/share/man/ja/man1/vim.1.gz --slave /usr/share/man/man1/ex.1.gz ex.1.gz /usr/share/man/man1/vim.1.gz
update-alternatives 2018-04-26 19:09:27: link group ex updated to point to /usr/bin/vim.basic
update-alternatives 2018-04-26 19:09:27: run with --install /usr/bin/editor editor /usr/bin/vim.basic 30 --slave /usr/share/man/fr/man1/editor.1.gz editor.fr.1.gz /usr/share/man/fr/man1/vim.1.gz --slave /usr/share/man/it/man1/editor.1.gz editor.it.1.gz /usr/share/man/it/man1/vim.1.gz --slave /usr/share/man/pl/man1/editor.1.gz editor.pl.1.gz /usr/share/man/pl/man1/vim.1.gz --slave /usr/share/man/ru/man1/editor.1.gz editor.ru.1.gz /usr/share/man/ru/man1/vim.1.gz --slave /usr/share/man/ja/man1/editor.1.gz editor.ja.1.gz /usr/share/man/ja/man1/vim.1.gz --slave /usr/share/man/man1/editor.1.gz editor.1.gz /usr/share/man/man1/vim.1.gz
update-alternatives 2018-04-26 19:09:40: run with --quiet --install /usr/bin/pinentry pinentry /usr/bin/pinentry-curses 50 --slave /usr/share/man/man1/pinentry.1.gz pinentry.1.gz /usr/share/man/man1/pinentry-curses.1.gz
update-alternatives 2018-04-26 19:09:40: link group pinentry updated to point to /usr/bin/pinentry-curses
update-alternatives 2018-04-26 19:09:42: run with --install /usr/share/plymouth/themes/text.plymouth text.plymouth /usr/share/plymouth/themes/ubuntu-text/ubuntu-text.plymouth 50
update-alternatives 2018-04-26 19:09:42: link group text.plymouth updated to point to /usr/share/plymouth/themes/ubuntu-text/ubuntu-text.plymouth
update-alternatives 2018-04-26 19:09:48: run with --quiet --install /usr/bin/rsh rsh /usr/bin/ssh 20 --slave /usr/share/man/man1/rsh.1.gz rsh.1.gz /usr/share/man/man1/ssh.1.gz
update-alternatives 2018-04-26 19:09:48: link group rsh updated to point to /usr/bin/ssh
update-alternatives 2018-04-26 19:09:48: run with --quiet --install /usr/bin/rlogin rlogin /usr/bin/slogin 20 --slave /usr/share/man/man1/rlogin.1.gz rlogin.1.gz /usr/share/man/man1/slogin.1.gz
update-alternatives 2018-04-26 19:09:48: link group rlogin updated to point to /usr/bin/slogin
update-alternatives 2018-04-26 19:09:48: run with --quiet --install /usr/bin/rcp rcp /usr/bin/scp 20 --slave /usr/share/man/man1/rcp.1.gz rcp.1.gz /usr/share/man/man1/scp.1.gz
update-alternatives 2018-04-26 19:09:48: link group rcp updated to point to /usr/bin/scp
update-alternatives 2018-04-26 19:10:21: run with --install /usr/bin/jsonpointer jsonpointer /usr/bin/python3-jsonpointer 200
update-alternatives 2018-04-26 19:10:21: link group jsonpointer updated to point to /usr/bin/python3-jsonpointer
update-alternatives 2018-04-26 19:10:21: run with --install /usr/bin/jsonschema jsonschema /usr/bin/python3-jsonschema 200
update-alternatives 2018-04-26 19:10:21: link group jsonschema updated to point to /usr/bin/python3-jsonschema
update-alternatives 2018-04-26 19:10:22: run with --install /usr/bin/jsondiff jsondiff /usr/bin/python3-jsondiff 200
update-alternatives 2018-04-26 19:10:22: link group jsondiff updated to point to /usr/bin/python3-jsondiff
update-alternatives 2018-04-26 19:10:22: run with --install /usr/bin/jsonpatch jsonpatch /usr/bin/python3-jsonpatch 200
update-alternatives 2018-04-26 19:10:22: link group jsonpatch updated to point to /usr/bin/python3-jsonpatch
update-alternatives 2018-08-25 09:01:29: run with --install /usr/bin/pager pager /bin/more 50 --slave /usr/share/man/man1/pager.1.gz pager.1.gz /usr/share/man/man1/more.1.gz
update-alternatives 2018-08-25 09:01:29: run with --remove pager /usr/bin/pg
update-alternatives 2018-08-25 09:02:26: run with --install /usr/share/plymouth/themes/text.plymouth text.plymouth /usr/share/plymouth/themes/ubuntu-text/ubuntu-text.plymouth 50
update-alternatives 2018-08-25 09:02:28: run with --install /bin/nc nc /bin/nc.openbsd 50 --slave /bin/netcat netcat /bin/nc.openbsd --slave /usr/share/man/man1/nc.1.gz nc.1.gz /usr/share/man/man1/nc_openbsd.1.gz --slave /usr/share/man/man1/netcat.1.gz netcat.1.gz /usr/share/man/man1/nc_openbsd.1.gz
update-alternatives 2018-08-25 09:02:28: run with --install /usr/bin/w w /usr/bin/w.procps 50 --slave /usr/share/man/man1/w.1.gz w.1.gz /usr/share/man/man1/w.procps.1.gz
update-alternatives 2018-08-25 09:02:43: run with --install /etc/vtrgb vtrgb /etc/console-setup/vtrgb 50
update-alternatives 2018-08-25 09:02:43: run with --install /etc/vtrgb vtrgb /etc/console-setup/vtrgb.vga 20
update-alternatives 2018-08-25 13:10:52: run with --install /etc/mysql/my.cnf my.cnf /etc/mysql/my.cnf.fallback 100
update-alternatives 2018-08-25 13:10:52: link group my.cnf updated to point to /etc/mysql/my.cnf.fallback
update-alternatives 2018-08-25 13:11:13: run with --install /usr/bin/php php /usr/bin/php7.2 72 --slave /usr/share/man/man1/php.1.gz php.1.gz /usr/share/man/man1/php7.2.1.gz
update-alternatives 2018-08-25 13:11:13: link group php updated to point to /usr/bin/php7.2
update-alternatives 2018-08-25 13:11:13: run with --install /usr/bin/phar phar /usr/bin/phar7.2 72 --slave /usr/share/man/man1/phar.1.gz phar.1.gz /usr/share/man/man1/phar7.2.1.gz
update-alternatives 2018-08-25 13:11:13: link group phar updated to point to /usr/bin/phar7.2
update-alternatives 2018-08-25 13:11:13: run with --install /usr/bin/phar.phar phar.phar /usr/bin/phar.phar7.2 72 --slave /usr/share/man/man1/phar.phar.1.gz phar.phar.1.gz /usr/share/man/man1/phar.phar7.2.1.gz
update-alternatives 2018-08-25 13:11:13: link group phar.phar updated to point to /usr/bin/phar.phar7.2
update-alternatives 2018-08-25 13:11:14: run with --install /etc/mysql/my.cnf my.cnf /etc/mysql/mysql.cnf 200
update-alternatives 2018-08-25 13:11:14: link group my.cnf updated to point to /etc/mysql/mysql.cnf
