ERROR: apport (pid 1762) Tue Aug 28 06:41:09 2018: host pid 1226 crashed in a separate mount namespace, ignoring
ERROR: apport (pid 1764) Tue Aug 28 06:41:09 2018: host pid 1238 crashed in a separate mount namespace, ignoring
ERROR: apport (pid 1763) Tue Aug 28 06:41:09 2018: host pid 1229 crashed in a separate mount namespace, ignoring
ERROR: apport (pid 1761) Tue Aug 28 06:41:09 2018: host pid 1221 crashed in a separate mount namespace, ignoring
ERROR: apport (pid 1765) Tue Aug 28 06:41:09 2018: called for pid 399, signal 6, core limit 0, dump mode 1
ERROR: apport (pid 1765) Tue Aug 28 06:41:09 2018: executable: /lib/systemd/systemd-journald (command line "/lib/systemd/systemd-journald")
ERROR: apport (pid 1765) Tue Aug 28 06:41:09 2018: is_closing_session(): no DBUS_SESSION_BUS_ADDRESS in environment
ERROR: apport (pid 1765) Tue Aug 28 06:41:10 2018: wrote report /var/crash/_lib_systemd_systemd-journald.0.crash
ERROR: apport (pid 1766) Tue Aug 28 06:41:10 2018: called for pid 1241, signal 6, core limit 0, dump mode 1
ERROR: apport (pid 1766) Tue Aug 28 06:41:10 2018: executable: /lib/systemd/systemd-logind (command line "/lib/systemd/systemd-logind")
ERROR: apport (pid 1766) Tue Aug 28 06:41:10 2018: is_closing_session(): no DBUS_SESSION_BUS_ADDRESS in environment
ERROR: apport (pid 1766) Tue Aug 28 06:41:10 2018: apport: report /var/crash/_lib_systemd_systemd-logind.0.crash already exists and unseen, doing nothing to avoid disk usage DoS
ERROR: apport (pid 2206) Tue Aug 28 07:30:51 2018: host pid 1815 crashed in a separate mount namespace, ignoring
ERROR: apport (pid 2208) Tue Aug 28 07:30:51 2018: host pid 1819 crashed in a separate mount namespace, ignoring
ERROR: apport (pid 2209) Tue Aug 28 07:30:51 2018: host pid 1824 crashed in a separate mount namespace, ignoring
ERROR: apport (pid 2205) Tue Aug 28 07:30:51 2018: called for pid 1849, signal 6, core limit 0, dump mode 1
ERROR: apport (pid 2205) Tue Aug 28 07:30:51 2018: executable: /lib/systemd/systemd-logind (command line "/lib/systemd/systemd-logind")
ERROR: apport (pid 2205) Tue Aug 28 07:30:51 2018: is_closing_session(): no DBUS_SESSION_BUS_ADDRESS in environment
ERROR: apport (pid 2205) Tue Aug 28 07:30:51 2018: apport: report /var/crash/_lib_systemd_systemd-logind.0.crash already exists and unseen, doing nothing to avoid disk usage DoS
ERROR: apport (pid 2207) Tue Aug 28 07:30:51 2018: host pid 1825 crashed in a separate mount namespace, ignoring
ERROR: apport (pid 2235) Tue Aug 28 07:40:27 2018: host pid 2219 crashed in a separate mount namespace, ignoring
ERROR: apport (pid 2238) Tue Aug 28 07:40:27 2018: host pid 2210 crashed in a separate mount namespace, ignoring
ERROR: apport (pid 2237) Tue Aug 28 07:40:27 2018: called for pid 1837, signal 6, core limit 0, dump mode 1
ERROR: apport (pid 2237) Tue Aug 28 07:40:27 2018: executable: /lib/systemd/systemd-journald (command line "/lib/systemd/systemd-journald")
ERROR: apport (pid 2237) Tue Aug 28 07:40:27 2018: is_closing_session(): no DBUS_SESSION_BUS_ADDRESS in environment
ERROR: apport (pid 2237) Tue Aug 28 07:40:27 2018: apport: report /var/crash/_lib_systemd_systemd-journald.0.crash already exists and unseen, doing nothing to avoid disk usage DoS
ERROR: apport (pid 2239) Tue Aug 28 07:40:28 2018: host pid 2224 crashed in a separate mount namespace, ignoring
ERROR: apport (pid 2236) Tue Aug 28 07:40:28 2018: called for pid 2217, signal 6, core limit 0, dump mode 1
ERROR: apport (pid 2236) Tue Aug 28 07:40:28 2018: executable: /lib/systemd/systemd-logind (command line "/lib/systemd/systemd-logind")
ERROR: apport (pid 2236) Tue Aug 28 07:40:28 2018: is_closing_session(): no DBUS_SESSION_BUS_ADDRESS in environment
ERROR: apport (pid 2236) Tue Aug 28 07:40:28 2018: apport: report /var/crash/_lib_systemd_systemd-logind.0.crash already exists and unseen, doing nothing to avoid disk usage DoS
ERROR: apport (pid 2240) Tue Aug 28 07:40:28 2018: host pid 2213 crashed in a separate mount namespace, ignoring
ERROR: apport (pid 2325) Tue Aug 28 08:30:39 2018: host pid 2310 crashed in a separate mount namespace, ignoring
ERROR: apport (pid 2323) Tue Aug 28 08:30:40 2018: host pid 2289 crashed in a separate mount namespace, ignoring
ERROR: apport (pid 2326) Tue Aug 28 08:30:40 2018: host pid 2309 crashed in a separate mount namespace, ignoring
ERROR: apport (pid 2322) Tue Aug 28 08:30:40 2018: called for pid 2300, signal 6, core limit 0, dump mode 1
ERROR: apport (pid 2322) Tue Aug 28 08:30:40 2018: executable: /lib/systemd/systemd-journald (command line "/lib/systemd/systemd-journald")
ERROR: apport (pid 2322) Tue Aug 28 08:30:40 2018: is_closing_session(): no DBUS_SESSION_BUS_ADDRESS in environment
ERROR: apport (pid 2322) Tue Aug 28 08:30:40 2018: apport: report /var/crash/_lib_systemd_systemd-journald.0.crash already exists and unseen, doing nothing to avoid disk usage DoS
ERROR: apport (pid 2324) Tue Aug 28 08:30:40 2018: host pid 2301 crashed in a separate mount namespace, ignoring
ERROR: apport (pid 1230) Wed Aug 29 02:48:19 2018: host pid 604 crashed in a separate mount namespace, ignoring
ERROR: apport (pid 1233) Wed Aug 29 02:48:19 2018: host pid 418 crashed in a separate mount namespace, ignoring
ERROR: apport (pid 1234) Wed Aug 29 02:48:19 2018: called for pid 719, signal 6, core limit 0, dump mode 1
ERROR: apport (pid 1234) Wed Aug 29 02:48:19 2018: executable: /lib/systemd/systemd-logind (command line "/lib/systemd/systemd-logind")
ERROR: apport (pid 1234) Wed Aug 29 02:48:19 2018: is_closing_session(): no DBUS_SESSION_BUS_ADDRESS in environment
ERROR: apport (pid 1234) Wed Aug 29 02:48:19 2018: apport: report /var/crash/_lib_systemd_systemd-logind.0.crash already exists and unseen, doing nothing to avoid disk usage DoS
ERROR: apport (pid 1231) Wed Aug 29 02:48:19 2018: host pid 454 crashed in a separate mount namespace, ignoring
ERROR: apport (pid 1232) Wed Aug 29 02:48:20 2018: called for pid 398, signal 6, core limit 0, dump mode 1
ERROR: apport (pid 1232) Wed Aug 29 02:48:20 2018: executable: /lib/systemd/systemd-journald (command line "/lib/systemd/systemd-journald")
ERROR: apport (pid 1232) Wed Aug 29 02:48:20 2018: is_closing_session(): no DBUS_SESSION_BUS_ADDRESS in environment
ERROR: apport (pid 1232) Wed Aug 29 02:48:20 2018: apport: report /var/crash/_lib_systemd_systemd-journald.0.crash already exists and unseen, doing nothing to avoid disk usage DoS
