Oct  8 06:25:10 assignment CRON[2404]: pam_unix(cron:session): session closed for user root
Oct  8 06:39:01 assignment CRON[2663]: pam_unix(cron:session): session opened for user root by (uid=0)
Oct  8 06:39:01 assignment CRON[2663]: pam_unix(cron:session): session closed for user root
Oct  8 07:09:01 assignment CRON[2742]: pam_unix(cron:session): session opened for user root by (uid=0)
Oct  8 07:09:01 assignment CRON[2742]: pam_unix(cron:session): session closed for user root
Oct  8 07:17:01 assignment CRON[2816]: pam_unix(cron:session): session opened for user root by (uid=0)
Oct  8 07:17:01 assignment CRON[2816]: pam_unix(cron:session): session closed for user root
Oct  8 07:39:01 assignment CRON[2823]: pam_unix(cron:session): session opened for user root by (uid=0)
Oct  8 07:39:01 assignment CRON[2823]: pam_unix(cron:session): session closed for user root
Oct  8 08:02:01 assignment CRON[2899]: pam_unix(cron:session): session opened for user root by (uid=0)
Oct  8 08:02:01 assignment CRON[2899]: pam_unix(cron:session): session closed for user root
Oct  8 08:09:01 assignment CRON[2941]: pam_unix(cron:session): session opened for user root by (uid=0)
Oct  8 08:09:01 assignment CRON[2941]: pam_unix(cron:session): session closed for user root
Oct  8 08:17:01 assignment CRON[3040]: pam_unix(cron:session): session opened for user root by (uid=0)
Oct  8 08:17:01 assignment CRON[3040]: pam_unix(cron:session): session closed for user root
Oct  8 08:39:01 assignment CRON[3049]: pam_unix(cron:session): session opened for user root by (uid=0)
Oct  8 08:39:01 assignment CRON[3049]: pam_unix(cron:session): session closed for user root
Oct  8 09:09:01 assignment CRON[3128]: pam_unix(cron:session): session opened for user root by (uid=0)
Oct  8 09:09:01 assignment CRON[3128]: pam_unix(cron:session): session closed for user root
Oct  8 09:17:01 assignment CRON[3210]: pam_unix(cron:session): session opened for user root by (uid=0)
Oct  8 09:17:01 assignment CRON[3210]: pam_unix(cron:session): session closed for user root
Oct  8 09:39:01 assignment CRON[3217]: pam_unix(cron:session): session opened for user root by (uid=0)
Oct  8 09:39:01 assignment CRON[3217]: pam_unix(cron:session): session closed for user root
Oct  8 10:09:01 assignment CRON[3299]: pam_unix(cron:session): session opened for user root by (uid=0)
Oct  8 10:09:01 assignment CRON[3299]: pam_unix(cron:session): session closed for user root
Oct  8 10:15:04 assignment sshd[1753]: Received disconnect from 192.168.56.1 port 56640:11: disconnected by user
Oct  8 10:15:04 assignment sshd[1753]: Disconnected from user ccsep 192.168.56.1 port 56640
Oct  8 10:15:04 assignment sshd[1616]: pam_unix(sshd:session): session closed for user ccsep
Oct  8 10:15:04 assignment systemd-logind[909]: Removed session 1.
Oct  8 10:17:01 assignment CRON[3380]: pam_unix(cron:session): session opened for user root by (uid=0)
Oct  8 10:17:01 assignment CRON[3380]: pam_unix(cron:session): session closed for user root
Oct  8 10:39:01 assignment CRON[3389]: pam_unix(cron:session): session opened for user root by (uid=0)
Oct  8 10:39:01 assignment CRON[3389]: pam_unix(cron:session): session closed for user root
Oct  8 10:54:33 assignment systemd-logind[909]: Power key pressed.
Oct  8 10:54:33 assignment systemd-logind[909]: Powering Off...
Oct  8 10:54:33 assignment systemd-logind[909]: System is powering down.
Oct 10 15:04:44 assignment systemd-logind[746]: New seat seat0.
Oct 10 15:04:44 assignment systemd-logind[746]: Watching system buttons on /dev/input/event0 (Power Button)
Oct 10 15:04:44 assignment systemd-logind[746]: Watching system buttons on /dev/input/event1 (Sleep Button)
Oct 10 15:04:44 assignment systemd-logind[746]: Watching system buttons on /dev/input/event2 (AT Translated Set 2 keyboard)
Oct 10 15:04:44 assignment sshd[1013]: Server listening on 0.0.0.0 port 22.
Oct 10 15:04:44 assignment sshd[1013]: Server listening on :: port 22.
Oct 10 15:09:01 assignment CRON[1510]: pam_unix(cron:session): session opened for user root by (uid=0)
Oct 10 15:09:01 assignment CRON[1510]: pam_unix(cron:session): session closed for user root
Oct 10 15:17:01 assignment CRON[1581]: pam_unix(cron:session): session opened for user root by (uid=0)
Oct 10 15:17:01 assignment CRON[1581]: pam_unix(cron:session): session closed for user root
Oct 10 15:36:39 assignment sshd[1604]: Accepted publickey for ccsep from 192.168.56.1 port 52412 ssh2: RSA SHA256:BPGcjPLM1qFCtTbrhxHHYjvM/J9SkFU71kIHnH6JhJ8
Oct 10 15:36:39 assignment sshd[1604]: pam_unix(sshd:session): session opened for user ccsep by (uid=0)
Oct 10 15:36:39 assignment systemd: pam_unix(systemd-user:session): session opened for user ccsep by (uid=0)
Oct 10 15:36:39 assignment systemd-logind[746]: New session 3 of user ccsep.
Oct 10 15:37:02 assignment sudo: pam_unix(sudo:auth): conversation failed
Oct 10 15:37:03 assignment sudo: pam_unix(sudo:auth): auth could not identify password for [ccsep]
Oct 10 15:37:07 assignment sudo: pam_unix(sudo:auth): authentication failure; logname=ccsep uid=1000 euid=0 tty=/dev/pts/0 ruser=ccsep rhost=  user=ccsep
Oct 10 15:37:09 assignment sudo:    ccsep : 1 incorrect password attempt ; TTY=pts/0 ; PWD=/var/www/html ; USER=root ; COMMAND=/usr/bin/apt install tree
Oct 10 15:37:27 assignment sudo:    ccsep : TTY=pts/0 ; PWD=/var/www/html ; USER=root ; COMMAND=/usr/bin/snap install tree
Oct 10 15:37:27 assignment sudo: pam_unix(sudo:session): session opened for user root by ccsep(uid=0)
Oct 10 15:37:27 assignment sudo: pam_unix(sudo:session): session closed for user root
Oct 10 15:37:31 assignment sudo:    ccsep : TTY=pts/0 ; PWD=/var/www/html ; USER=root ; COMMAND=/usr/bin/apt install tree
Oct 10 15:37:31 assignment sudo: pam_unix(sudo:session): session opened for user root by ccsep(uid=0)
Oct 10 15:37:31 assignment sudo: pam_unix(sudo:session): session closed for user root
Oct 10 15:39:01 assignment CRON[1799]: pam_unix(cron:session): session opened for user root by (uid=0)
Oct 10 15:39:01 assignment CRON[1799]: pam_unix(cron:session): session closed for user root
Oct 10 15:40:26 assignment sshd[1920]: Accepted publickey for ccsep from 192.168.56.1 port 52660 ssh2: RSA SHA256:BPGcjPLM1qFCtTbrhxHHYjvM/J9SkFU71kIHnH6JhJ8
Oct 10 15:40:26 assignment sshd[1920]: pam_unix(sshd:session): session opened for user ccsep by (uid=0)
Oct 10 15:40:26 assignment systemd-logind[746]: New session 6 of user ccsep.
Oct 10 15:40:27 assignment sshd[2001]: Received disconnect from 192.168.56.1 port 52660:11: disconnected by user
Oct 10 15:40:27 assignment sshd[2001]: Disconnected from user ccsep 192.168.56.1 port 52660
Oct 10 15:40:27 assignment systemd-logind[746]: Removed session 6.
Oct 10 15:40:27 assignment sshd[1920]: pam_unix(sshd:session): session closed for user ccsep
Oct 10 15:40:29 assignment sshd[2003]: Accepted publickey for ccsep from 192.168.56.1 port 52662 ssh2: RSA SHA256:BPGcjPLM1qFCtTbrhxHHYjvM/J9SkFU71kIHnH6JhJ8
Oct 10 15:40:29 assignment sshd[2003]: pam_unix(sshd:session): session opened for user ccsep by (uid=0)
Oct 10 15:40:29 assignment systemd-logind[746]: New session 7 of user ccsep.
Oct 10 15:40:30 assignment sshd[2084]: Received disconnect from 192.168.56.1 port 52662:11: disconnected by user
Oct 10 15:40:30 assignment sshd[2084]: Disconnected from user ccsep 192.168.56.1 port 52662
Oct 10 15:40:30 assignment sshd[2003]: pam_unix(sshd:session): session closed for user ccsep
Oct 10 15:40:30 assignment systemd-logind[746]: Removed session 7.
Oct 10 16:09:01 assignment CRON[2174]: pam_unix(cron:session): session opened for user root by (uid=0)
Oct 10 16:09:01 assignment CRON[2174]: pam_unix(cron:session): session closed for user root
Oct 10 16:17:01 assignment CRON[2253]: pam_unix(cron:session): session opened for user root by (uid=0)
Oct 10 16:17:01 assignment CRON[2253]: pam_unix(cron:session): session closed for user root
Oct 10 16:29:56 assignment sudo: pam_unix(sudo:auth): conversation failed
Oct 10 16:29:56 assignment sudo: pam_unix(sudo:auth): auth could not identify password for [ccsep]
Oct 10 16:29:58 assignment sshd[1744]: Received disconnect from 192.168.56.1 port 52412:11: disconnected by user
Oct 10 16:29:58 assignment sshd[1744]: Disconnected from user ccsep 192.168.56.1 port 52412
Oct 10 16:29:58 assignment sshd[1604]: pam_unix(sshd:session): session closed for user ccsep
Oct 10 16:29:58 assignment systemd-logind[746]: Removed session 3.
Oct 10 16:30:01 assignment systemd-logind[746]: Power key pressed.
Oct 10 16:30:01 assignment systemd-logind[746]: Powering Off...
Oct 10 16:30:01 assignment systemd-logind[746]: System is powering down.
Oct 10 16:30:01 assignment sshd[1013]: Received signal 15; terminating.
Oct 11 03:41:38 assignment systemd-logind[822]: New seat seat0.
Oct 11 03:41:38 assignment systemd-logind[822]: Watching system buttons on /dev/input/event0 (Power Button)
Oct 11 03:41:38 assignment systemd-logind[822]: Watching system buttons on /dev/input/event1 (Sleep Button)
Oct 11 03:41:38 assignment systemd-logind[822]: Watching system buttons on /dev/input/event2 (AT Translated Set 2 keyboard)
Oct 11 03:41:39 assignment sshd[1040]: Server listening on 0.0.0.0 port 22.
Oct 11 03:41:39 assignment sshd[1040]: Server listening on :: port 22.
Oct 11 03:49:34 assignment sshd[1333]: Accepted publickey for ccsep from 192.168.56.1 port 50205 ssh2: RSA SHA256:BPGcjPLM1qFCtTbrhxHHYjvM/J9SkFU71kIHnH6JhJ8
Oct 11 03:49:34 assignment sshd[1333]: pam_unix(sshd:session): session opened for user ccsep by (uid=0)
Oct 11 03:49:34 assignment systemd-logind[822]: New session 1 of user ccsep.
Oct 11 03:49:34 assignment systemd: pam_unix(systemd-user:session): session opened for user ccsep by (uid=0)
Oct 11 04:09:01 assignment CRON[1597]: pam_unix(cron:session): session opened for user root by (uid=0)
Oct 11 04:09:01 assignment CRON[1597]: pam_unix(cron:session): session closed for user root
Oct 11 04:17:01 assignment CRON[1743]: pam_unix(cron:session): session opened for user root by (uid=0)
Oct 11 04:17:01 assignment CRON[1743]: pam_unix(cron:session): session closed for user root
Oct 11 04:39:01 assignment CRON[1752]: pam_unix(cron:session): session opened for user root by (uid=0)
Oct 11 04:39:01 assignment CRON[1752]: pam_unix(cron:session): session closed for user root
Oct 11 05:09:01 assignment CRON[1836]: pam_unix(cron:session): session opened for user root by (uid=0)
Oct 11 05:09:01 assignment CRON[1836]: pam_unix(cron:session): session closed for user root
Oct 11 05:17:01 assignment CRON[1913]: pam_unix(cron:session): session opened for user root by (uid=0)
Oct 11 05:17:01 assignment CRON[1913]: pam_unix(cron:session): session closed for user root
Oct 11 05:39:01 assignment CRON[1924]: pam_unix(cron:session): session opened for user root by (uid=0)
Oct 11 05:39:01 assignment CRON[1924]: pam_unix(cron:session): session closed for user root
Oct 11 06:09:01 assignment CRON[2066]: pam_unix(cron:session): session opened for user root by (uid=0)
Oct 11 06:09:01 assignment CRON[2066]: pam_unix(cron:session): session closed for user root
Oct 11 06:17:01 assignment CRON[2151]: pam_unix(cron:session): session opened for user root by (uid=0)
Oct 11 06:17:01 assignment CRON[2151]: pam_unix(cron:session): session closed for user root
Oct 11 06:25:01 assignment CRON[2189]: pam_unix(cron:session): session opened for user root by (uid=0)
Oct 11 06:25:10 assignment CRON[2189]: pam_unix(cron:session): session closed for user root
Oct 11 06:39:01 assignment CRON[2450]: pam_unix(cron:session): session opened for user root by (uid=0)
Oct 11 06:39:01 assignment CRON[2450]: pam_unix(cron:session): session closed for user root
Oct 11 07:09:01 assignment CRON[2720]: pam_unix(cron:session): session opened for user root by (uid=0)
Oct 11 07:09:01 assignment CRON[2720]: pam_unix(cron:session): session closed for user root
Oct 11 07:17:01 assignment CRON[2820]: pam_unix(cron:session): session opened for user root by (uid=0)
Oct 11 07:17:01 assignment CRON[2820]: pam_unix(cron:session): session closed for user root
Oct 11 07:39:01 assignment CRON[2904]: pam_unix(cron:session): session opened for user root by (uid=0)
Oct 11 07:39:01 assignment CRON[2904]: pam_unix(cron:session): session closed for user root
Oct 11 07:54:02 assignment sshd[3038]: Accepted publickey for ccsep from 192.168.56.1 port 55108 ssh2: RSA SHA256:BPGcjPLM1qFCtTbrhxHHYjvM/J9SkFU71kIHnH6JhJ8
Oct 11 07:54:02 assignment sshd[3038]: pam_unix(sshd:session): session opened for user ccsep by (uid=0)
Oct 11 07:54:02 assignment systemd-logind[822]: New session 16 of user ccsep.
Oct 11 08:02:01 assignment CRON[3361]: pam_unix(cron:session): session opened for user root by (uid=0)
Oct 11 08:02:01 assignment CRON[3361]: pam_unix(cron:session): session closed for user root
Oct 11 08:09:01 assignment CRON[3408]: pam_unix(cron:session): session opened for user root by (uid=0)
Oct 11 08:09:01 assignment CRON[3408]: pam_unix(cron:session): session closed for user root
Oct 11 08:17:01 assignment CRON[3516]: pam_unix(cron:session): session opened for user root by (uid=0)
Oct 11 08:17:01 assignment CRON[3516]: pam_unix(cron:session): session closed for user root
Oct 11 08:39:01 assignment CRON[3543]: pam_unix(cron:session): session opened for user root by (uid=0)
Oct 11 08:39:01 assignment CRON[3543]: pam_unix(cron:session): session closed for user root
Oct 11 09:09:01 assignment CRON[3716]: pam_unix(cron:session): session opened for user root by (uid=0)
Oct 11 09:09:01 assignment CRON[3716]: pam_unix(cron:session): session closed for user root
Oct 11 09:17:01 assignment CRON[3840]: pam_unix(cron:session): session opened for user root by (uid=0)
Oct 11 09:17:01 assignment CRON[3840]: pam_unix(cron:session): session closed for user root
Oct 11 09:39:01 assignment CRON[3904]: pam_unix(cron:session): session opened for user root by (uid=0)
Oct 11 09:39:01 assignment CRON[3904]: pam_unix(cron:session): session closed for user root
Oct 11 10:09:01 assignment CRON[4056]: pam_unix(cron:session): session opened for user root by (uid=0)
Oct 11 10:09:01 assignment CRON[4056]: pam_unix(cron:session): session closed for user root
Oct 11 10:11:16 assignment sshd[1470]: Received disconnect from 192.168.56.1 port 50205:11: disconnected by user
Oct 11 10:11:16 assignment sshd[1470]: Disconnected from user ccsep 192.168.56.1 port 50205
Oct 11 10:11:16 assignment systemd-logind[822]: Removed session 1.
Oct 11 10:11:16 assignment sshd[1333]: pam_unix(sshd:session): session closed for user ccsep
Oct 11 10:11:45 assignment sshd[3141]: Received disconnect from 192.168.56.1 port 55108:11: disconnected by user
Oct 11 10:11:45 assignment sshd[3141]: Disconnected from user ccsep 192.168.56.1 port 55108
Oct 11 10:11:45 assignment systemd-logind[822]: Removed session 16.
Oct 11 10:11:45 assignment sshd[3038]: pam_unix(sshd:session): session closed for user ccsep
Oct 11 10:17:01 assignment CRON[4146]: pam_unix(cron:session): session opened for user root by (uid=0)
Oct 11 10:17:01 assignment CRON[4146]: pam_unix(cron:session): session closed for user root
Oct 11 10:39:01 assignment CRON[4152]: pam_unix(cron:session): session opened for user root by (uid=0)
Oct 11 10:39:01 assignment CRON[4152]: pam_unix(cron:session): session closed for user root
Oct 11 10:53:04 assignment sshd[4228]: Accepted publickey for ccsep from 192.168.56.1 port 59890 ssh2: RSA SHA256:BPGcjPLM1qFCtTbrhxHHYjvM/J9SkFU71kIHnH6JhJ8
Oct 11 10:53:04 assignment sshd[4228]: pam_unix(sshd:session): session opened for user ccsep by (uid=0)
Oct 11 10:53:04 assignment systemd: pam_unix(systemd-user:session): session opened for user ccsep by (uid=0)
Oct 11 10:53:04 assignment systemd-logind[822]: New session 27 of user ccsep.
Oct 11 11:09:01 assignment CRON[4522]: pam_unix(cron:session): session opened for user root by (uid=0)
Oct 11 11:09:01 assignment CRON[4522]: pam_unix(cron:session): session closed for user root
Oct 11 11:17:01 assignment CRON[4598]: pam_unix(cron:session): session opened for user root by (uid=0)
Oct 11 11:17:01 assignment CRON[4598]: pam_unix(cron:session): session closed for user root
Oct 11 11:39:01 assignment CRON[4709]: pam_unix(cron:session): session opened for user root by (uid=0)
Oct 11 11:39:01 assignment CRON[4709]: pam_unix(cron:session): session closed for user root
Oct 11 12:09:01 assignment CRON[4895]: pam_unix(cron:session): session opened for user root by (uid=0)
Oct 11 12:09:01 assignment CRON[4895]: pam_unix(cron:session): session closed for user root
Oct 11 12:17:01 assignment CRON[5003]: pam_unix(cron:session): session opened for user root by (uid=0)
Oct 11 12:17:01 assignment CRON[5003]: pam_unix(cron:session): session closed for user root
Oct 11 12:39:01 assignment CRON[5035]: pam_unix(cron:session): session opened for user root by (uid=0)
Oct 11 12:39:01 assignment CRON[5035]: pam_unix(cron:session): session closed for user root
Oct 11 13:09:01 assignment CRON[5119]: pam_unix(cron:session): session opened for user root by (uid=0)
Oct 11 13:09:01 assignment CRON[5119]: pam_unix(cron:session): session closed for user root
Oct 11 13:17:01 assignment CRON[5197]: pam_unix(cron:session): session opened for user root by (uid=0)
Oct 11 13:17:01 assignment CRON[5197]: pam_unix(cron:session): session closed for user root
Oct 11 13:39:01 assignment CRON[5231]: pam_unix(cron:session): session opened for user root by (uid=0)
Oct 11 13:39:02 assignment CRON[5231]: pam_unix(cron:session): session closed for user root
Oct 11 14:06:47 assignment sshd[4344]: Received disconnect from 192.168.56.1 port 59890:11: disconnected by user
Oct 11 14:06:47 assignment sshd[4344]: Disconnected from user ccsep 192.168.56.1 port 59890
Oct 11 14:06:47 assignment sshd[4228]: pam_unix(sshd:session): session closed for user ccsep
Oct 11 14:06:47 assignment systemd-logind[822]: Removed session 27.
Oct 11 14:06:47 assignment systemd: pam_unix(systemd-user:session): session closed for user ccsep
Oct 11 14:09:01 assignment CRON[5371]: pam_unix(cron:session): session opened for user root by (uid=0)
Oct 11 14:09:01 assignment CRON[5371]: pam_unix(cron:session): session closed for user root
Oct 11 14:17:01 assignment CRON[5447]: pam_unix(cron:session): session opened for user root by (uid=0)
Oct 11 14:17:01 assignment CRON[5447]: pam_unix(cron:session): session closed for user root
Oct 11 14:39:01 assignment CRON[5455]: pam_unix(cron:session): session opened for user root by (uid=0)
Oct 11 14:39:01 assignment CRON[5455]: pam_unix(cron:session): session closed for user root
Oct 11 14:52:55 assignment systemd-logind[822]: Power key pressed.
Oct 12 02:00:18 assignment systemd-logind[901]: New seat seat0.
Oct 12 02:00:18 assignment systemd-logind[901]: Watching system buttons on /dev/input/event0 (Power Button)
Oct 12 02:00:18 assignment systemd-logind[901]: Watching system buttons on /dev/input/event1 (Sleep Button)
Oct 12 02:00:18 assignment systemd-logind[901]: Watching system buttons on /dev/input/event2 (AT Translated Set 2 keyboard)
Oct 12 02:00:20 assignment sshd[1098]: Server listening on 0.0.0.0 port 22.
Oct 12 02:00:20 assignment sshd[1098]: Server listening on :: port 22.
Oct 12 02:03:33 assignment sshd[1355]: Accepted publickey for ccsep from 192.168.56.1 port 49345 ssh2: RSA SHA256:BPGcjPLM1qFCtTbrhxHHYjvM/J9SkFU71kIHnH6JhJ8
Oct 12 02:03:33 assignment sshd[1355]: pam_unix(sshd:session): session opened for user ccsep by (uid=0)
Oct 12 02:03:33 assignment systemd-logind[901]: New session 1 of user ccsep.
Oct 12 02:03:33 assignment systemd: pam_unix(systemd-user:session): session opened for user ccsep by (uid=0)
Oct 12 02:09:01 assignment CRON[1596]: pam_unix(cron:session): session opened for user root by (uid=0)
Oct 12 02:09:01 assignment CRON[1596]: pam_unix(cron:session): session closed for user root
Oct 12 02:09:31 assignment sshd[1684]: Accepted publickey for ccsep from 192.168.56.1 port 49608 ssh2: RSA SHA256:BPGcjPLM1qFCtTbrhxHHYjvM/J9SkFU71kIHnH6JhJ8
Oct 12 02:09:31 assignment sshd[1684]: pam_unix(sshd:session): session opened for user ccsep by (uid=0)
Oct 12 02:09:31 assignment systemd-logind[901]: New session 4 of user ccsep.
Oct 12 02:17:01 assignment CRON[1838]: pam_unix(cron:session): session opened for user root by (uid=0)
Oct 12 02:17:01 assignment CRON[1838]: pam_unix(cron:session): session closed for user root
Oct 12 02:39:01 assignment CRON[1977]: pam_unix(cron:session): session opened for user root by (uid=0)
Oct 12 02:39:01 assignment CRON[1977]: pam_unix(cron:session): session closed for user root
Oct 12 03:09:01 assignment CRON[2364]: pam_unix(cron:session): session opened for user root by (uid=0)
Oct 12 03:09:01 assignment CRON[2364]: pam_unix(cron:session): session closed for user root
Oct 12 03:17:01 assignment CRON[2469]: pam_unix(cron:session): session opened for user root by (uid=0)
Oct 12 03:17:01 assignment CRON[2469]: pam_unix(cron:session): session closed for user root
Oct 12 03:39:01 assignment CRON[2527]: pam_unix(cron:session): session opened for user root by (uid=0)
Oct 12 03:39:01 assignment CRON[2527]: pam_unix(cron:session): session closed for user root
Oct 12 04:09:01 assignment CRON[2709]: pam_unix(cron:session): session opened for user root by (uid=0)
Oct 12 04:09:01 assignment CRON[2709]: pam_unix(cron:session): session closed for user root
Oct 12 04:17:01 assignment CRON[2809]: pam_unix(cron:session): session opened for user root by (uid=0)
Oct 12 04:17:01 assignment CRON[2809]: pam_unix(cron:session): session closed for user root
Oct 12 04:39:01 assignment CRON[2847]: pam_unix(cron:session): session opened for user root by (uid=0)
Oct 12 04:39:01 assignment CRON[2847]: pam_unix(cron:session): session closed for user root
Oct 12 05:09:01 assignment CRON[2968]: pam_unix(cron:session): session opened for user root by (uid=0)
Oct 12 05:09:01 assignment CRON[2968]: pam_unix(cron:session): session closed for user root
Oct 12 05:17:01 assignment CRON[3050]: pam_unix(cron:session): session opened for user root by (uid=0)
Oct 12 05:17:01 assignment CRON[3050]: pam_unix(cron:session): session closed for user root
Oct 12 05:35:19 assignment sshd[1765]: Received disconnect from 192.168.56.1 port 49608:11: disconnected by user
Oct 12 05:35:19 assignment sshd[1765]: Disconnected from user ccsep 192.168.56.1 port 49608
Oct 12 05:35:19 assignment systemd-logind[901]: Removed session 4.
Oct 12 05:35:19 assignment sshd[1684]: pam_unix(sshd:session): session closed for user ccsep
Oct 12 05:39:01 assignment CRON[3104]: pam_unix(cron:session): session opened for user root by (uid=0)
Oct 12 05:39:01 assignment CRON[3104]: pam_unix(cron:session): session closed for user root
Oct 12 06:09:01 assignment CRON[3298]: pam_unix(cron:session): session opened for user root by (uid=0)
Oct 12 06:09:01 assignment CRON[3298]: pam_unix(cron:session): session closed for user root
Oct 12 06:17:01 assignment CRON[3384]: pam_unix(cron:session): session opened for user root by (uid=0)
Oct 12 06:17:01 assignment CRON[3384]: pam_unix(cron:session): session closed for user root
Oct 12 06:25:01 assignment CRON[3396]: pam_unix(cron:session): session opened for user root by (uid=0)
Oct 12 06:25:04 assignment CRON[3396]: pam_unix(cron:session): session closed for user root
Oct 12 06:35:11 assignment sshd[1495]: Received disconnect from 192.168.56.1 port 49345:11: disconnected by user
Oct 12 06:35:11 assignment sshd[1495]: Disconnected from user ccsep 192.168.56.1 port 49345
Oct 12 06:35:11 assignment systemd-logind[901]: Removed session 1.
Oct 12 06:35:12 assignment sshd[1355]: pam_unix(sshd:session): session closed for user ccsep
Oct 12 06:35:12 assignment systemd: pam_unix(systemd-user:session): session closed for user ccsep
Oct 12 06:39:01 assignment CRON[3599]: pam_unix(cron:session): session opened for user root by (uid=0)
Oct 12 06:39:01 assignment CRON[3599]: pam_unix(cron:session): session closed for user root
Oct 12 06:51:08 assignment sshd[3673]: Accepted publickey for ccsep from 192.168.56.1 port 51620 ssh2: RSA SHA256:BPGcjPLM1qFCtTbrhxHHYjvM/J9SkFU71kIHnH6JhJ8
Oct 12 06:51:08 assignment sshd[3673]: pam_unix(sshd:session): session opened for user ccsep by (uid=0)
Oct 12 06:51:08 assignment systemd: pam_unix(systemd-user:session): session opened for user ccsep by (uid=0)
Oct 12 06:51:08 assignment systemd-logind[901]: New session 20 of user ccsep.
Oct 12 07:09:01 assignment CRON[3913]: pam_unix(cron:session): session opened for user root by (uid=0)
Oct 12 07:09:01 assignment CRON[3913]: pam_unix(cron:session): session closed for user root
Oct 12 07:17:01 assignment CRON[4019]: pam_unix(cron:session): session opened for user root by (uid=0)
Oct 12 07:17:01 assignment CRON[4019]: pam_unix(cron:session): session closed for user root
Oct 12 07:39:01 assignment CRON[4112]: pam_unix(cron:session): session opened for user root by (uid=0)
Oct 12 07:39:01 assignment CRON[4112]: pam_unix(cron:session): session closed for user root
Oct 12 08:02:01 assignment CRON[4235]: pam_unix(cron:session): session opened for user root by (uid=0)
Oct 12 08:02:01 assignment CRON[4235]: pam_unix(cron:session): session closed for user root
Oct 12 08:09:01 assignment CRON[4257]: pam_unix(cron:session): session opened for user root by (uid=0)
Oct 12 08:09:01 assignment CRON[4257]: pam_unix(cron:session): session closed for user root
Oct 12 08:12:05 assignment sshd[3787]: Received disconnect from 192.168.56.1 port 51620:11: disconnected by user
Oct 12 08:12:05 assignment sshd[3787]: Disconnected from user ccsep 192.168.56.1 port 51620
Oct 12 08:12:05 assignment systemd-logind[901]: Removed session 20.
Oct 12 08:12:05 assignment sshd[3673]: pam_unix(sshd:session): session closed for user ccsep
Oct 12 08:12:17 assignment systemd-logind[901]: Power key pressed.
Oct 12 08:12:17 assignment systemd-logind[901]: Powering Off...
Oct 12 08:12:17 assignment systemd-logind[901]: System is powering down.
Oct 14 03:45:59 assignment systemd-logind[912]: New seat seat0.
Oct 14 03:45:59 assignment systemd-logind[912]: Watching system buttons on /dev/input/event0 (Power Button)
Oct 14 03:45:59 assignment systemd-logind[912]: Watching system buttons on /dev/input/event1 (Sleep Button)
Oct 14 03:45:59 assignment systemd-logind[912]: Watching system buttons on /dev/input/event2 (AT Translated Set 2 keyboard)
Oct 14 03:45:59 assignment sshd[1136]: Server listening on 0.0.0.0 port 22.
Oct 14 03:45:59 assignment sshd[1136]: Server listening on :: port 22.
Oct 14 03:46:17 assignment sshd[1448]: Accepted publickey for ccsep from 192.168.56.1 port 55685 ssh2: RSA SHA256:BPGcjPLM1qFCtTbrhxHHYjvM/J9SkFU71kIHnH6JhJ8
Oct 14 03:46:17 assignment sshd[1448]: pam_unix(sshd:session): session opened for user ccsep by (uid=0)
Oct 14 03:46:17 assignment systemd-logind[912]: New session 1 of user ccsep.
Oct 14 03:46:17 assignment systemd: pam_unix(systemd-user:session): session opened for user ccsep by (uid=0)
Oct 14 04:09:01 assignment CRON[1876]: pam_unix(cron:session): session opened for user root by (uid=0)
Oct 14 04:09:01 assignment CRON[1876]: pam_unix(cron:session): session closed for user root
Oct 14 04:17:01 assignment CRON[1979]: pam_unix(cron:session): session opened for user root by (uid=0)
Oct 14 04:17:01 assignment CRON[1979]: pam_unix(cron:session): session closed for user root
Oct 14 04:39:01 assignment CRON[2032]: pam_unix(cron:session): session opened for user root by (uid=0)
Oct 14 04:39:01 assignment CRON[2032]: pam_unix(cron:session): session closed for user root
Oct 14 05:09:01 assignment CRON[2201]: pam_unix(cron:session): session opened for user root by (uid=0)
Oct 14 05:09:01 assignment CRON[2201]: pam_unix(cron:session): session closed for user root
Oct 14 05:17:01 assignment CRON[2280]: pam_unix(cron:session): session opened for user root by (uid=0)
Oct 14 05:17:01 assignment CRON[2280]: pam_unix(cron:session): session closed for user root
Oct 14 05:38:25 assignment sshd[1590]: Received disconnect from 192.168.56.1 port 55685:11: disconnected by user
Oct 14 05:38:25 assignment sshd[1590]: Disconnected from user ccsep 192.168.56.1 port 55685
Oct 14 05:38:25 assignment sshd[1448]: pam_unix(sshd:session): session closed for user ccsep
Oct 14 05:38:25 assignment systemd-logind[912]: Removed session 1.
Oct 14 05:38:25 assignment systemd: pam_unix(systemd-user:session): session closed for user ccsep
Oct 14 05:38:42 assignment sshd[2301]: Accepted publickey for ccsep from 192.168.56.1 port 56200 ssh2: RSA SHA256:BPGcjPLM1qFCtTbrhxHHYjvM/J9SkFU71kIHnH6JhJ8
Oct 14 05:38:42 assignment sshd[2301]: pam_unix(sshd:session): session opened for user ccsep by (uid=0)
Oct 14 05:38:42 assignment systemd: pam_unix(systemd-user:session): session opened for user ccsep by (uid=0)
Oct 14 05:38:42 assignment systemd-logind[912]: New session 8 of user ccsep.
Oct 14 05:38:44 assignment sshd[2415]: Received disconnect from 192.168.56.1 port 56200:11: disconnected by user
Oct 14 05:38:44 assignment sshd[2415]: Disconnected from user ccsep 192.168.56.1 port 56200
Oct 14 05:38:44 assignment sshd[2301]: pam_unix(sshd:session): session closed for user ccsep
Oct 14 05:38:44 assignment systemd-logind[912]: Removed session 8.
Oct 14 05:38:44 assignment systemd: pam_unix(systemd-user:session): session closed for user ccsep
Oct 14 05:39:01 assignment CRON[2419]: pam_unix(cron:session): session opened for user root by (uid=0)
Oct 14 05:39:01 assignment CRON[2419]: pam_unix(cron:session): session closed for user root
Oct 14 06:09:01 assignment CRON[2501]: pam_unix(cron:session): session opened for user root by (uid=0)
Oct 14 06:09:01 assignment CRON[2501]: pam_unix(cron:session): session closed for user root
Oct 14 06:17:01 assignment CRON[2574]: pam_unix(cron:session): session opened for user root by (uid=0)
Oct 14 06:17:01 assignment CRON[2574]: pam_unix(cron:session): session closed for user root
Oct 14 06:25:01 assignment CRON[2579]: pam_unix(cron:session): session opened for user root by (uid=0)
